navigation/navigation.vcd
$date
     Nov 09, 2018       14:24:36
$end

$version
 SystemC 2.3.2-Accellera --- Sep  5 2018 14:15:23
$end

$timescale
     1 ps
$end

$scope module SystemC $end
$var wire    1  aaaaa  c1       $end
$upscope $end
$enddefinitions  $end

$comment
All initial values are dumped below at time 0 sec = 0 timescale units.
$end

$dumpvars
1aaaaa
$end

#2500
0aaaaa

#5000
1aaaaa

#7500
0aaaaa

#10000
1aaaaa

#12500
0aaaaa

#15000
1aaaaa

#17500
0aaaaa

#20000
1aaaaa

#22500
0aaaaa

#25000
1aaaaa

#27500
0aaaaa

#30000
1aaaaa

#32500
0aaaaa

#35000
1aaaaa

#37500
0aaaaa

#40000
1aaaaa

#42500
0aaaaa

#45000
1aaaaa

#47500
0aaaaa

#50000
1aaaaa

#52500
0aaaaa

#55000
1aaaaa

#57500
0aaaaa

#60000
1aaaaa

#62500
0aaaaa

#65000
1aaaaa

#67500
0aaaaa

#70000
1aaaaa

#72500
0aaaaa

#75000
1aaaaa

#77500
0aaaaa

#80000
1aaaaa

#82500
0aaaaa

#85000
1aaaaa

#87500
0aaaaa

#90000
1aaaaa

#92500
0aaaaa

#95000
1aaaaa

#97500
0aaaaa

#100000
1aaaaa

#102500
0aaaaa

#105000
1aaaaa

#107500
0aaaaa

#110000
1aaaaa

#112500
0aaaaa

#115000
1aaaaa

#117500
0aaaaa

#120000
1aaaaa

#122500
0aaaaa

#125000
1aaaaa

#127500
0aaaaa

#130000
1aaaaa

#132500
0aaaaa

#135000
1aaaaa

#137500
0aaaaa

#140000
1aaaaa

#142500
0aaaaa

#145000
1aaaaa

#147500
0aaaaa

#150000
1aaaaa

#152500
0aaaaa

#155000
1aaaaa

#157500
0aaaaa

#160000
1aaaaa

#162500
0aaaaa

#165000
1aaaaa

#167500
0aaaaa

#170000
1aaaaa

#172500
0aaaaa

#175000
1aaaaa

#177500
0aaaaa

#180000
1aaaaa

#182500
0aaaaa

#185000
1aaaaa

#187500
0aaaaa

#190000
1aaaaa

#192500
0aaaaa

#195000
1aaaaa

#197500
0aaaaa

#200000
1aaaaa

#202500
0aaaaa

#205000
1aaaaa

#207500
0aaaaa

#210000
1aaaaa

#212500
0aaaaa

#215000
1aaaaa

#217500
0aaaaa

#220000
1aaaaa

#222500
0aaaaa

#225000
1aaaaa

#227500
0aaaaa

#230000
1aaaaa

#232500
0aaaaa

#235000
1aaaaa

#237500
0aaaaa

#240000
1aaaaa

#242500
0aaaaa

#245000
1aaaaa

#247500
0aaaaa

#250000
1aaaaa

#252500
0aaaaa

#255000
1aaaaa

#257500
0aaaaa

#260000
1aaaaa

#262500
0aaaaa

#265000
1aaaaa

#267500
0aaaaa

#270000
1aaaaa

#272500
0aaaaa

#275000
1aaaaa

#277500
0aaaaa

#280000
1aaaaa

#282500
0aaaaa

#285000
1aaaaa

#287500
0aaaaa

#290000
1aaaaa

#292500
0aaaaa

#295000
1aaaaa

#297500
0aaaaa

#300000
1aaaaa

#302500
0aaaaa

#305000
1aaaaa

#307500
0aaaaa

#310000
1aaaaa

#312500
0aaaaa

#315000
1aaaaa

#317500
0aaaaa

#320000
1aaaaa

#322500
0aaaaa

#325000
1aaaaa

#327500
0aaaaa

#330000
1aaaaa

#332500
0aaaaa

#335000
1aaaaa

#337500
0aaaaa

#340000
1aaaaa

#342500
0aaaaa

#345000
1aaaaa

#347500
0aaaaa

#350000
1aaaaa

#352500
0aaaaa

#355000
1aaaaa

#357500
0aaaaa

#360000
1aaaaa

#362500
0aaaaa

#365000
1aaaaa

#367500
0aaaaa

#370000
1aaaaa

#372500
0aaaaa

#375000
1aaaaa

#377500
0aaaaa

#380000
1aaaaa

#382500
0aaaaa

#385000
1aaaaa

#387500
0aaaaa

#390000
1aaaaa

#392500
0aaaaa

#395000
1aaaaa

#397500
0aaaaa

#400000
1aaaaa

#402500
0aaaaa

#405000
1aaaaa

#407500
0aaaaa

#410000
1aaaaa

#412500
0aaaaa

#415000
1aaaaa

#417500
0aaaaa

#420000
1aaaaa

#422500
0aaaaa

#425000
1aaaaa

#427500
0aaaaa

#430000
1aaaaa

#432500
0aaaaa

#435000
1aaaaa

#437500
0aaaaa

#440000
1aaaaa

#442500
0aaaaa

#445000
1aaaaa

#447500
0aaaaa

#450000
1aaaaa

#452500
0aaaaa

#455000
1aaaaa

#457500
0aaaaa

#460000
1aaaaa

#462500
0aaaaa

#465000
1aaaaa

#467500
0aaaaa

#470000
1aaaaa

#472500
0aaaaa

#475000
1aaaaa

#477500
0aaaaa

#480000
1aaaaa

#482500
0aaaaa

#485000
1aaaaa

#487500
0aaaaa

#490000
1aaaaa

#492500
0aaaaa

#495000
1aaaaa

#497500
0aaaaa

#500000
1aaaaa

#502500
0aaaaa

#505000
1aaaaa

#507500
0aaaaa

#510000
1aaaaa

#512500
0aaaaa

#515000
1aaaaa

#517500
0aaaaa

#520000
1aaaaa

#522500
0aaaaa

#525000
1aaaaa

#527500
0aaaaa

#530000
1aaaaa

#532500
0aaaaa

#535000
1aaaaa

#537500
0aaaaa

#540000
1aaaaa

#542500
0aaaaa

#545000
1aaaaa

#547500
0aaaaa

#550000
1aaaaa

#552500
0aaaaa

#555000
1aaaaa

#557500
0aaaaa

#560000
1aaaaa

#562500
0aaaaa

#565000
1aaaaa

#567500
0aaaaa

#570000
1aaaaa

#572500
0aaaaa

#575000
1aaaaa

#577500
0aaaaa

#580000
1aaaaa

#582500
0aaaaa

#585000
1aaaaa

#587500
0aaaaa

#590000
1aaaaa

#592500
0aaaaa

#595000
1aaaaa

#597500
0aaaaa

#600000
1aaaaa

#602500
0aaaaa

#605000
1aaaaa

#607500
0aaaaa

#610000
1aaaaa

#612500
0aaaaa

#615000
1aaaaa

#617500
0aaaaa

#620000
1aaaaa

#622500
0aaaaa

#625000
1aaaaa

#627500
0aaaaa

#630000
1aaaaa

#632500
0aaaaa

#635000
1aaaaa

#637500
0aaaaa

#640000
1aaaaa

#642500
0aaaaa

#645000
1aaaaa

#647500
0aaaaa

#650000
1aaaaa

#652500
0aaaaa

#655000
1aaaaa

#657500
0aaaaa

#660000
1aaaaa

#662500
0aaaaa

#665000
1aaaaa

#667500
0aaaaa

#670000
1aaaaa

#672500
0aaaaa

#675000
1aaaaa

#677500
0aaaaa

#680000
1aaaaa

#682500
0aaaaa

#685000
1aaaaa

#687500
0aaaaa

#690000
1aaaaa

#692500
0aaaaa

#695000
1aaaaa

#697500
0aaaaa

#700000
1aaaaa

#702500
0aaaaa

#705000
1aaaaa

#707500
0aaaaa

#710000
1aaaaa

#712500
0aaaaa

#715000
1aaaaa

#717500
0aaaaa

#720000
1aaaaa

#722500
0aaaaa

#725000
1aaaaa

#727500
0aaaaa

#730000
1aaaaa

#732500
0aaaaa

#735000
1aaaaa

#737500
0aaaaa

#740000
1aaaaa

#742500
0aaaaa

#745000
1aaaaa

#747500
0aaaaa

#750000
1aaaaa

#752500
0aaaaa

#755000
1aaaaa

#757500
0aaaaa

#760000
1aaaaa

#762500
0aaaaa

#765000
1aaaaa

#767500
0aaaaa

#770000
1aaaaa

#772500
0aaaaa

#775000
1aaaaa

#777500
0aaaaa

#780000
1aaaaa

#782500
0aaaaa

#785000
1aaaaa

#787500
0aaaaa

#790000
1aaaaa

#792500
0aaaaa

#795000
1aaaaa

#797500
0aaaaa

#800000
1aaaaa

#802500
0aaaaa

#805000
1aaaaa

#807500
0aaaaa

#810000
1aaaaa

#812500
0aaaaa

#815000
1aaaaa

#817500
0aaaaa

#820000
1aaaaa

#822500
0aaaaa

#825000
1aaaaa

#827500
0aaaaa

#830000
1aaaaa

#832500
0aaaaa

#835000
1aaaaa

#837500
0aaaaa

#840000
1aaaaa

#842500
0aaaaa

#845000
1aaaaa

#847500
0aaaaa

#850000
1aaaaa

#852500
0aaaaa

#855000
1aaaaa

#857500
0aaaaa

#860000
1aaaaa

#862500
0aaaaa

#865000
1aaaaa

#867500
0aaaaa

#870000
1aaaaa

#872500
0aaaaa

#875000
1aaaaa

#877500
0aaaaa

#880000
1aaaaa

#882500
0aaaaa

#885000
1aaaaa

#887500
0aaaaa

#890000
1aaaaa

#892500
0aaaaa

#895000
1aaaaa

#897500
0aaaaa

#900000
1aaaaa

#902500
0aaaaa

#905000
1aaaaa

#907500
0aaaaa

#910000
1aaaaa

#912500
0aaaaa

#915000
1aaaaa

#917500
0aaaaa

#920000
1aaaaa

#922500
0aaaaa

#925000
1aaaaa

#927500
0aaaaa

#930000
1aaaaa

#932500
0aaaaa

#935000
1aaaaa

#937500
0aaaaa

#940000
1aaaaa

#942500
0aaaaa

#945000
1aaaaa

#947500
0aaaaa

#950000
1aaaaa

#952500
0aaaaa

#955000
1aaaaa

#957500
0aaaaa

#960000
1aaaaa

#962500
0aaaaa

#965000
1aaaaa

#967500
0aaaaa

#970000
1aaaaa

#972500
0aaaaa

#975000
1aaaaa

#977500
0aaaaa

#980000
1aaaaa

#982500
0aaaaa

#985000
1aaaaa

#987500
0aaaaa

#990000
1aaaaa

#992500
0aaaaa

#995000
1aaaaa

#997500
0aaaaa

#1000000
1aaaaa

#1002500
0aaaaa

#1005000
1aaaaa

#1007500
0aaaaa

#1010000
1aaaaa

#1012500
0aaaaa

#1015000
1aaaaa

#1017500
0aaaaa

#1020000
1aaaaa

#1022500
0aaaaa

#1025000
1aaaaa

#1027500
0aaaaa

#1030000
1aaaaa

#1032500
0aaaaa

#1035000
1aaaaa

#1037500
0aaaaa

#1040000
1aaaaa

#1042500
0aaaaa

#1045000
1aaaaa

#1047500
0aaaaa

#1050000
1aaaaa

#1052500
0aaaaa

#1055000
1aaaaa

#1057500
0aaaaa

#1060000
1aaaaa

#1062500
0aaaaa

#1065000
1aaaaa

#1067500
0aaaaa

#1070000
1aaaaa

#1072500
0aaaaa

#1075000
1aaaaa

#1077500
0aaaaa

#1080000
1aaaaa

#1082500
0aaaaa

#1085000
1aaaaa

#1087500
0aaaaa

#1090000
1aaaaa

#1092500
0aaaaa

#1095000
1aaaaa

#1097500
0aaaaa

#1100000
1aaaaa

#1102500
0aaaaa

#1105000
1aaaaa

#1107500
0aaaaa

#1110000
1aaaaa

#1112500
0aaaaa

#1115000
1aaaaa

#1117500
0aaaaa

#1120000
1aaaaa

#1122500
0aaaaa

#1125000
1aaaaa

#1127500
0aaaaa

#1130000
1aaaaa

#1132500
0aaaaa

#1135000
1aaaaa

#1137500
0aaaaa

#1140000
1aaaaa

#1142500
0aaaaa

#1145000
1aaaaa

#1147500
0aaaaa

#1150000
1aaaaa

#1152500
0aaaaa

#1155000
1aaaaa

#1157500
0aaaaa

#1160000
1aaaaa

#1162500
0aaaaa

#1165000
1aaaaa

#1167500
0aaaaa

#1170000
1aaaaa

#1172500
0aaaaa

#1175000
1aaaaa

#1177500
0aaaaa

#1180000
1aaaaa

#1182500
0aaaaa

#1185000
1aaaaa

#1187500
0aaaaa

#1190000
1aaaaa

#1192500
0aaaaa

#1195000
1aaaaa

#1197500
0aaaaa

#1200000
1aaaaa

#1202500
0aaaaa

#1205000
1aaaaa

#1207500
0aaaaa

#1210000
1aaaaa

#1212500
0aaaaa

#1215000
1aaaaa

#1217500
0aaaaa

#1220000
1aaaaa

#1222500
0aaaaa

#1225000
1aaaaa

#1227500
0aaaaa

#1230000
1aaaaa

#1232500
0aaaaa

#1235000
1aaaaa

#1237500
0aaaaa

#1240000
1aaaaa

#1242500
0aaaaa

#1245000
1aaaaa

#1247500
0aaaaa

#1250000
1aaaaa

#1252500
0aaaaa

#1255000
1aaaaa

#1257500
0aaaaa

#1260000
1aaaaa

#1262500
0aaaaa

#1265000
1aaaaa

#1267500
0aaaaa

#1270000
1aaaaa

#1272500
0aaaaa

#1275000
1aaaaa

#1277500
0aaaaa

#1280000
1aaaaa

#1282500
0aaaaa

#1285000
1aaaaa

#1287500
0aaaaa

#1290000
1aaaaa

#1292500
0aaaaa

#1295000
1aaaaa

#1297500
0aaaaa

#1300000
1aaaaa

#1302500
0aaaaa

#1305000
1aaaaa

#1307500
0aaaaa

#1310000
1aaaaa

#1312500
0aaaaa

#1315000
1aaaaa

#1317500
0aaaaa

#1320000
1aaaaa

#1322500
0aaaaa

#1325000
1aaaaa

#1327500
0aaaaa

#1330000
1aaaaa

#1332500
0aaaaa

#1335000
1aaaaa

#1337500
0aaaaa

#1340000
1aaaaa

#1342500
0aaaaa

#1345000
1aaaaa

#1347500
0aaaaa

#1350000
1aaaaa

#1352500
0aaaaa

#1355000
1aaaaa

#1357500
0aaaaa

#1360000
1aaaaa

#1362500
0aaaaa

#1365000
1aaaaa

#1367500
0aaaaa

#1370000
1aaaaa

#1372500
0aaaaa

#1375000
1aaaaa

#1377500
0aaaaa

#1380000
1aaaaa

#1382500
0aaaaa

#1385000
1aaaaa

#1387500
0aaaaa

#1390000
1aaaaa

#1392500
0aaaaa

#1395000
1aaaaa

#1397500
0aaaaa

#1400000
1aaaaa

#1402500
0aaaaa

#1405000
1aaaaa

#1407500
0aaaaa

#1410000
1aaaaa

#1412500
0aaaaa

#1415000
1aaaaa

#1417500
0aaaaa

#1420000
1aaaaa

#1422500
0aaaaa

#1425000
1aaaaa

#1427500
0aaaaa

#1430000
1aaaaa

#1432500
0aaaaa

#1435000
1aaaaa

#1437500
0aaaaa

#1440000
1aaaaa

#1442500
0aaaaa

#1445000
1aaaaa

#1447500
0aaaaa

#1450000
1aaaaa

#1452500
0aaaaa

#1455000
1aaaaa

#1457500
0aaaaa

#1460000
1aaaaa

#1462500
0aaaaa

#1465000
1aaaaa

#1467500
0aaaaa

#1470000
1aaaaa

#1472500
0aaaaa

#1475000
1aaaaa

#1477500
0aaaaa

#1480000
1aaaaa

#1482500
0aaaaa

#1485000
1aaaaa

#1487500
0aaaaa

#1490000
1aaaaa

#1492500
0aaaaa

#1495000
1aaaaa

#1497500
0aaaaa

#1500000
1aaaaa

#1502500
0aaaaa

#1505000
1aaaaa

#1507500
0aaaaa

#1510000
1aaaaa

#1512500
0aaaaa

#1515000
1aaaaa

#1517500
0aaaaa

#1520000
1aaaaa

#1522500
0aaaaa

#1525000
1aaaaa

#1527500
0aaaaa

#1530000
1aaaaa

#1532500
0aaaaa

#1535000
1aaaaa

#1537500
0aaaaa

#1540000
1aaaaa

#1542500
0aaaaa

#1545000
1aaaaa

#1547500
0aaaaa

#1550000
1aaaaa

#1552500
0aaaaa

#1555000
1aaaaa

#1557500
0aaaaa

#1560000
1aaaaa

#1562500
0aaaaa

#1565000
1aaaaa

#1567500
0aaaaa

#1570000
1aaaaa

#1572500
0aaaaa

#1575000
1aaaaa

#1577500
0aaaaa

#1580000
1aaaaa

#1582500
0aaaaa

#1585000
1aaaaa

#1587500
0aaaaa

#1590000
1aaaaa

#1592500
0aaaaa

#1595000
1aaaaa

#1597500
0aaaaa

#1600000
1aaaaa

#1602500
0aaaaa

#1605000
1aaaaa

#1607500
0aaaaa

#1610000
1aaaaa

#1612500
0aaaaa

#1615000
1aaaaa

#1617500
0aaaaa

#1620000
1aaaaa

#1622500
0aaaaa

#1625000
1aaaaa

#1627500
0aaaaa

#1630000
1aaaaa

#1632500
0aaaaa

#1635000
1aaaaa

#1637500
0aaaaa

#1640000
1aaaaa

#1642500
0aaaaa

#1645000
1aaaaa

#1647500
0aaaaa

#1650000
1aaaaa

#1652500
0aaaaa

#1655000
1aaaaa

#1657500
0aaaaa

#1660000
1aaaaa

#1662500
0aaaaa

#1665000
1aaaaa

#1667500
0aaaaa

#1670000
1aaaaa

#1672500
0aaaaa

#1675000
1aaaaa

#1677500
0aaaaa

#1680000
1aaaaa

#1682500
0aaaaa

#1685000
1aaaaa

#1687500
0aaaaa

#1690000
1aaaaa

#1692500
0aaaaa

#1695000
1aaaaa

#1697500
0aaaaa

#1700000
1aaaaa

#1702500
0aaaaa

#1705000
1aaaaa

#1707500
0aaaaa

#1710000
1aaaaa

#1712500
0aaaaa

#1715000
1aaaaa

#1717500
0aaaaa

#1720000
1aaaaa

#1722500
0aaaaa

#1725000
1aaaaa

#1727500
0aaaaa

#1730000
1aaaaa

#1732500
0aaaaa

#1735000
1aaaaa

#1737500
0aaaaa

#1740000
1aaaaa

#1742500
0aaaaa

#1745000
1aaaaa

#1747500
0aaaaa

#1750000
1aaaaa

#1752500
0aaaaa

#1755000
1aaaaa

#1757500
0aaaaa

#1760000
1aaaaa

#1762500
0aaaaa

#1765000
1aaaaa

#1767500
0aaaaa

#1770000
1aaaaa

#1772500
0aaaaa

#1775000
1aaaaa

#1777500
0aaaaa

#1780000
1aaaaa

#1782500
0aaaaa

#1785000
1aaaaa

#1787500
0aaaaa

#1790000
1aaaaa

#1792500
0aaaaa

#1795000
1aaaaa

#1797500
0aaaaa

#1800000
1aaaaa

#1802500
0aaaaa

#1805000
1aaaaa

#1807500
0aaaaa

#1810000
1aaaaa

#1812500
0aaaaa

#1815000
1aaaaa

#1817500
0aaaaa

#1820000
1aaaaa

#1822500
0aaaaa

#1825000
1aaaaa

#1827500
0aaaaa

#1830000
1aaaaa

#1832500
0aaaaa

#1835000
1aaaaa

#1837500
0aaaaa

#1840000
1aaaaa

#1842500
0aaaaa

#1845000
1aaaaa

#1847500
0aaaaa

#1850000
1aaaaa

#1852500
0aaaaa

#1855000
1aaaaa

#1857500
0aaaaa

#1860000
1aaaaa

#1862500
0aaaaa

#1865000
1aaaaa

#1867500
0aaaaa

#1870000
1aaaaa

#1872500
0aaaaa

#1875000
1aaaaa

#1877500
0aaaaa

#1880000
1aaaaa

#1882500
0aaaaa

#1885000
1aaaaa

#1887500
0aaaaa

#1890000
1aaaaa

#1892500
0aaaaa

#1895000
1aaaaa

#1897500
0aaaaa

#1900000
1aaaaa

#1902500
0aaaaa

#1905000
1aaaaa

#1907500
0aaaaa

#1910000
1aaaaa

#1912500
0aaaaa

#1915000
1aaaaa

#1917500
0aaaaa

#1920000
1aaaaa

#1922500
0aaaaa

#1925000
1aaaaa

#1927500
0aaaaa

#1930000
1aaaaa

#1932500
0aaaaa

#1935000
1aaaaa

#1937500
0aaaaa

#1940000
1aaaaa

#1942500
0aaaaa

#1945000
1aaaaa

#1947500
0aaaaa

#1950000
1aaaaa

#1952500
0aaaaa

#1955000
1aaaaa

#1957500
0aaaaa

#1960000
1aaaaa

#1962500
0aaaaa

#1965000
1aaaaa

#1967500
0aaaaa

#1970000
1aaaaa

#1972500
0aaaaa

#1975000
1aaaaa

#1977500
0aaaaa

#1980000
1aaaaa

#1982500
0aaaaa

#1985000
1aaaaa

#1987500
0aaaaa

#1990000
1aaaaa

#1992500
0aaaaa

#1995000
1aaaaa

#1997500
0aaaaa

#2000000
1aaaaa

#2002500
0aaaaa

#2005000
1aaaaa

#2007500
0aaaaa

#2010000
1aaaaa

#2012500
0aaaaa

#2015000
1aaaaa

#2017500
0aaaaa

#2020000
1aaaaa

#2022500
0aaaaa

#2025000
1aaaaa

#2027500
0aaaaa

#2030000
1aaaaa

#2032500
0aaaaa

#2035000
1aaaaa

#2037500
0aaaaa

#2040000
1aaaaa

#2042500
0aaaaa

#2045000
1aaaaa

#2047500
0aaaaa

#2050000
1aaaaa

#2052500
0aaaaa

#2055000
1aaaaa

#2057500
0aaaaa

#2060000
1aaaaa

#2062500
0aaaaa

#2065000
1aaaaa

#2067500
0aaaaa

#2070000
1aaaaa

#2072500
0aaaaa

#2075000
1aaaaa

#2077500
0aaaaa

#2080000
1aaaaa

#2082500
0aaaaa

#2085000
1aaaaa

#2087500
0aaaaa

#2090000
1aaaaa

#2092500
0aaaaa

#2095000
1aaaaa

#2097500
0aaaaa

#2100000
1aaaaa

#2102500
0aaaaa

#2105000
1aaaaa

#2107500
0aaaaa

#2110000
1aaaaa

#2112500
0aaaaa

#2115000
1aaaaa

#2117500
0aaaaa

#2120000
1aaaaa

#2122500
0aaaaa

#2125000
1aaaaa

#2127500
0aaaaa

#2130000
1aaaaa

#2132500
0aaaaa

#2135000
1aaaaa

#2137500
0aaaaa

#2140000
1aaaaa

#2142500
0aaaaa

#2145000
1aaaaa

#2147500
0aaaaa

#2150000
1aaaaa

#2152500
0aaaaa

#2155000
1aaaaa

#2157500
0aaaaa

#2160000
1aaaaa

#2162500
0aaaaa

#2165000
1aaaaa

#2167500
0aaaaa

#2170000
1aaaaa

#2172500
0aaaaa

#2175000
1aaaaa

#2177500
0aaaaa

#2180000
1aaaaa

#2182500
0aaaaa

#2185000
1aaaaa

#2187500
0aaaaa

#2190000
1aaaaa

#2192500
0aaaaa

#2195000
1aaaaa

#2197500
0aaaaa

#2200000
1aaaaa

#2202500
0aaaaa

#2205000
1aaaaa

#2207500
0aaaaa

#2210000
1aaaaa

#2212500
0aaaaa

#2215000
1aaaaa

#2217500
0aaaaa

#2220000
1aaaaa

#2222500
0aaaaa

#2225000
1aaaaa

#2227500
0aaaaa

#2230000
1aaaaa

#2232500
0aaaaa

#2235000
1aaaaa

#2237500
0aaaaa

#2240000
1aaaaa

#2242500
0aaaaa

#2245000
1aaaaa

#2247500
0aaaaa

#2250000
1aaaaa

#2252500
0aaaaa

#2255000
1aaaaa

#2257500
0aaaaa

#2260000
1aaaaa

#2262500
0aaaaa

#2265000
1aaaaa

#2267500
0aaaaa

#2270000
1aaaaa

#2272500
0aaaaa

#2275000
1aaaaa

#2277500
0aaaaa

#2280000
1aaaaa

#2282500
0aaaaa

#2285000
1aaaaa

#2287500
0aaaaa

#2290000
1aaaaa

#2292500
0aaaaa

#2295000
1aaaaa

#2297500
0aaaaa

#2300000
1aaaaa

#2302500
0aaaaa

#2305000
1aaaaa

#2307500
0aaaaa

#2310000
1aaaaa

#2312500
0aaaaa

#2315000
1aaaaa

#2317500
0aaaaa

#2320000
1aaaaa

#2322500
0aaaaa

#2325000
1aaaaa

#2327500
0aaaaa

#2330000
1aaaaa

#2332500
0aaaaa

#2335000
1aaaaa

#2337500
0aaaaa

#2340000
1aaaaa

#2342500
0aaaaa

#2345000
1aaaaa

#2347500
0aaaaa

#2350000
1aaaaa

#2352500
0aaaaa

#2355000
1aaaaa

#2357500
0aaaaa

#2360000
1aaaaa

#2362500
0aaaaa

#2365000
1aaaaa

#2367500
0aaaaa

#2370000
1aaaaa

#2372500
0aaaaa

#2375000
1aaaaa

#2377500
0aaaaa

#2380000
1aaaaa

#2382500
0aaaaa

#2385000
1aaaaa

#2387500
0aaaaa

#2390000
1aaaaa

#2392500
0aaaaa

#2395000
1aaaaa

#2397500
0aaaaa

#2400000
1aaaaa

#2402500
0aaaaa

#2405000
1aaaaa

#2407500
0aaaaa

#2410000
1aaaaa

#2412500
0aaaaa

#2415000
1aaaaa

#2417500
0aaaaa

#2420000
1aaaaa

#2422500
0aaaaa

#2425000
1aaaaa

#2427500
0aaaaa

#2430000
1aaaaa

#2432500
0aaaaa

#2435000
1aaaaa

#2437500
0aaaaa

#2440000
1aaaaa

#2442500
0aaaaa

#2445000
1aaaaa

#2447500
0aaaaa

#2450000
1aaaaa

#2452500
0aaaaa

#2455000
1aaaaa

#2457500
0aaaaa

#2460000
1aaaaa

#2462500
0aaaaa

#2465000
1aaaaa

#2467500
0aaaaa

#2470000
1aaaaa

#2472500
0aaaaa

#2475000
1aaaaa

#2477500
0aaaaa

#2480000
1aaaaa

#2482500
0aaaaa

#2485000
1aaaaa

#2487500
0aaaaa

#2490000
1aaaaa

#2492500
0aaaaa

#2495000
1aaaaa

#2497500
0aaaaa

