navigation/navigation.vcd
$date
     Nov 08, 2018       21:04:06
$end

$version
 SystemC 2.3.2-Accellera --- Sep  5 2018 14:15:23
$end

$timescale
     1 ps
$end

$scope module SystemC $end
$var wire    1  aaaaa  c1       $end
$upscope $end
$enddefinitions  $end

$comment
All initial values are dumped below at time 0 sec = 0 timescale units.
$end

$dumpvars
1aaaaa
$end

#2500
0aaaaa

#5000
1aaaaa

#7500
0aaaaa

#10000
1aaaaa

#12500
0aaaaa

#15000
1aaaaa

#17500
0aaaaa

#20000
1aaaaa

#22500
0aaaaa

#25000
1aaaaa

#27500
0aaaaa

#30000
1aaaaa

#32500
0aaaaa

#35000
1aaaaa

#37500
0aaaaa

#40000
1aaaaa

#42500
0aaaaa

#45000
1aaaaa

#47500
0aaaaa

#50000
1aaaaa

#52500
0aaaaa

#55000
1aaaaa

#57500
0aaaaa

#60000
1aaaaa

#62500
0aaaaa

#65000
1aaaaa

#67500
0aaaaa

#70000
1aaaaa

#72500
0aaaaa

#75000
1aaaaa

#77500
0aaaaa

#80000
1aaaaa

#82500
0aaaaa

#85000
1aaaaa

#87500
0aaaaa

#90000
1aaaaa

#92500
0aaaaa

#95000
1aaaaa

#97500
0aaaaa

#100000
1aaaaa

#102500
0aaaaa

#105000
1aaaaa

#107500
0aaaaa

#110000
1aaaaa

#112500
0aaaaa

#115000
1aaaaa

#117500
0aaaaa

#120000
1aaaaa

#122500
0aaaaa

#125000
1aaaaa

#127500
0aaaaa

#130000
1aaaaa

#132500
0aaaaa

#135000
1aaaaa

#137500
0aaaaa

#140000
1aaaaa

#142500
0aaaaa

#145000
1aaaaa

#147500
0aaaaa

#150000
1aaaaa

#152500
0aaaaa

#155000
1aaaaa

#157500
0aaaaa

#160000
1aaaaa

#162500
0aaaaa

#165000
1aaaaa

#167500
0aaaaa

#170000
1aaaaa

#172500
0aaaaa

#175000
1aaaaa

#177500
0aaaaa

#180000
1aaaaa

#182500
0aaaaa

#185000
1aaaaa

#187500
0aaaaa

#190000
1aaaaa

#192500
0aaaaa

#195000
1aaaaa

#197500
0aaaaa

#200000
1aaaaa

#202500
0aaaaa

#205000
1aaaaa

#207500
0aaaaa

#210000
1aaaaa

#212500
0aaaaa

#215000
1aaaaa

#217500
0aaaaa

#220000
1aaaaa

#222500
0aaaaa

#225000
1aaaaa

#227500
0aaaaa

#230000
1aaaaa

#232500
0aaaaa

#235000
1aaaaa

#237500
0aaaaa

#240000
1aaaaa

#242500
0aaaaa

#245000
1aaaaa

#247500
0aaaaa

#250000
1aaaaa

#252500
0aaaaa

#255000
1aaaaa

#257500
0aaaaa

#260000
1aaaaa

#262500
0aaaaa

#265000
1aaaaa

#267500
0aaaaa

#270000
1aaaaa

#272500
0aaaaa

#275000
1aaaaa

#277500
0aaaaa

#280000
1aaaaa

#282500
0aaaaa

#285000
1aaaaa

#287500
0aaaaa

#290000
1aaaaa

#292500
0aaaaa

#295000
1aaaaa

#297500
0aaaaa

#300000
1aaaaa

#302500
0aaaaa

#305000
1aaaaa

#307500
0aaaaa

#310000
1aaaaa

#312500
0aaaaa

#315000
1aaaaa

#317500
0aaaaa

#320000
1aaaaa

#322500
0aaaaa

#325000
1aaaaa

#327500
0aaaaa

#330000
1aaaaa

#332500
0aaaaa

#335000
1aaaaa

#337500
0aaaaa

#340000
1aaaaa

#342500
0aaaaa

#345000
1aaaaa

#347500
0aaaaa

#350000
1aaaaa

#352500
0aaaaa

#355000
1aaaaa

#357500
0aaaaa

#360000
1aaaaa

#362500
0aaaaa

#365000
1aaaaa

#367500
0aaaaa

#370000
1aaaaa

#372500
0aaaaa

#375000
1aaaaa

#377500
0aaaaa

#380000
1aaaaa

#382500
0aaaaa

#385000
1aaaaa

#387500
0aaaaa

#390000
1aaaaa

#392500
0aaaaa

#395000
1aaaaa

#397500
0aaaaa

#400000
1aaaaa

#402500
0aaaaa

#405000
1aaaaa

#407500
0aaaaa

#410000
1aaaaa

#412500
0aaaaa

#415000
1aaaaa

#417500
0aaaaa

#420000
1aaaaa

#422500
0aaaaa

#425000
1aaaaa

#427500
0aaaaa

#430000
1aaaaa

#432500
0aaaaa

#435000
1aaaaa

#437500
0aaaaa

#440000
1aaaaa

#442500
0aaaaa

#445000
1aaaaa

#447500
0aaaaa

#450000
1aaaaa

#452500
0aaaaa

#455000
1aaaaa

#457500
0aaaaa

#460000
1aaaaa

#462500
0aaaaa

#465000
1aaaaa

#467500
0aaaaa

#470000
1aaaaa

#472500
0aaaaa

#475000
1aaaaa

#477500
0aaaaa

#480000
1aaaaa

#482500
0aaaaa

#485000
1aaaaa

#487500
0aaaaa

#490000
1aaaaa

#492500
0aaaaa

#495000
1aaaaa

#497500
0aaaaa

#500000
1aaaaa

#502500
0aaaaa

#505000
1aaaaa

#507500
0aaaaa

#510000
1aaaaa

#512500
0aaaaa

#515000
1aaaaa

#517500
0aaaaa

#520000
1aaaaa

#522500
0aaaaa

#525000
1aaaaa

#527500
0aaaaa

#530000
1aaaaa

#532500
0aaaaa

#535000
1aaaaa

#537500
0aaaaa

#540000
1aaaaa

#542500
0aaaaa

#545000
1aaaaa

#547500
0aaaaa

#550000
1aaaaa

#552500
0aaaaa

#555000
1aaaaa

#557500
0aaaaa

#560000
1aaaaa

#562500
0aaaaa

#565000
1aaaaa

#567500
0aaaaa

#570000
1aaaaa

#572500
0aaaaa

#575000
1aaaaa

#577500
0aaaaa

#580000
1aaaaa

#582500
0aaaaa

#585000
1aaaaa

#587500
0aaaaa

#590000
1aaaaa

#592500
0aaaaa

#595000
1aaaaa

#597500
0aaaaa

#600000
1aaaaa

#602500
0aaaaa

#605000
1aaaaa

#607500
0aaaaa

#610000
1aaaaa

#612500
0aaaaa

#615000
1aaaaa

#617500
0aaaaa

#620000
1aaaaa

#622500
0aaaaa

#625000
1aaaaa

#627500
0aaaaa

#630000
1aaaaa

#632500
0aaaaa

#635000
1aaaaa

#637500
0aaaaa

#640000
1aaaaa

#642500
0aaaaa

#645000
1aaaaa

#647500
0aaaaa

#650000
1aaaaa

#652500
0aaaaa

#655000
1aaaaa

#657500
0aaaaa

#660000
1aaaaa

#662500
0aaaaa

#665000
1aaaaa

#667500
0aaaaa

#670000
1aaaaa

#672500
0aaaaa

#675000
1aaaaa

#677500
0aaaaa

#680000
1aaaaa

#682500
0aaaaa

#685000
1aaaaa

#687500
0aaaaa

#690000
1aaaaa

#692500
0aaaaa

#695000
1aaaaa

#697500
0aaaaa

#700000
1aaaaa

#702500
0aaaaa

#705000
1aaaaa

#707500
0aaaaa

#710000
1aaaaa

#712500
0aaaaa

#715000
1aaaaa

#717500
0aaaaa

#720000
1aaaaa

#722500
0aaaaa

#725000
1aaaaa

#727500
0aaaaa

#730000
1aaaaa

#732500
0aaaaa

#735000
1aaaaa

#737500
0aaaaa

#740000
1aaaaa

#742500
0aaaaa

#745000
1aaaaa

#747500
0aaaaa

#750000
1aaaaa

#752500
0aaaaa

#755000
1aaaaa

#757500
0aaaaa

#760000
1aaaaa

#762500
0aaaaa

#765000
1aaaaa

#767500
0aaaaa

#770000
1aaaaa

#772500
0aaaaa

#775000
1aaaaa

#777500
0aaaaa

#780000
1aaaaa

#782500
0aaaaa

#785000
1aaaaa

#787500
0aaaaa

#790000
1aaaaa

#792500
0aaaaa

#795000
1aaaaa

#797500
0aaaaa

#800000
1aaaaa

#802500
0aaaaa

#805000
1aaaaa

#807500
0aaaaa

#810000
1aaaaa

#812500
0aaaaa

#815000
1aaaaa

#817500
0aaaaa

#820000
1aaaaa

#822500
0aaaaa

#825000
1aaaaa

#827500
0aaaaa

#830000
1aaaaa

#832500
0aaaaa

#835000
1aaaaa

#837500
0aaaaa

#840000
1aaaaa

#842500
0aaaaa

#845000
1aaaaa

#847500
0aaaaa

#850000
1aaaaa

#852500
0aaaaa

#855000
1aaaaa

#857500
0aaaaa

#860000
1aaaaa

#862500
0aaaaa

#865000
1aaaaa

#867500
0aaaaa

#870000
1aaaaa

#872500
0aaaaa

#875000
1aaaaa

#877500
0aaaaa

#880000
1aaaaa

#882500
0aaaaa

#885000
1aaaaa

#887500
0aaaaa

#890000
1aaaaa

#892500
0aaaaa

#895000
1aaaaa

#897500
0aaaaa

#900000
1aaaaa

#902500
0aaaaa

#905000
1aaaaa

#907500
0aaaaa

#910000
1aaaaa

#912500
0aaaaa

#915000
1aaaaa

#917500
0aaaaa

#920000
1aaaaa

#922500
0aaaaa

#925000
1aaaaa

#927500
0aaaaa

#930000
1aaaaa

#932500
0aaaaa

#935000
1aaaaa

#937500
0aaaaa

#940000
1aaaaa

#942500
0aaaaa

#945000
1aaaaa

#947500
0aaaaa

#950000
1aaaaa

#952500
0aaaaa

#955000
1aaaaa

#957500
0aaaaa

#960000
1aaaaa

#962500
0aaaaa

#965000
1aaaaa

#967500
0aaaaa

#970000
1aaaaa

#972500
0aaaaa

#975000
1aaaaa

#977500
0aaaaa

#980000
1aaaaa

#982500
0aaaaa

#985000
1aaaaa

#987500
0aaaaa

#990000
1aaaaa

#992500
0aaaaa

#995000
1aaaaa

#997500
0aaaaa

