seq_det/sdet.vcd
$date
     Sep 08, 2018       00:53:01
$end

$version
 SystemC 2.3.2-Accellera --- Sep  5 2018 14:15:23
$end

$timescale
     1 ps
$end

$scope module SystemC $end
$var wire    1  aaaaa  c1       $end
$var wire    1  aaaab  t_data       $end
$var wire    1  aaaac  t_seq_found       $end
$var wire    1  aaaad  t_reset       $end
$var wire    1  aaaae  t_clear       $end
$scope module s1 $end
$var wire    1  aaaaf  first       $end
$var wire    1  aaaag  second       $end
$var wire    1  aaaah  third       $end
$var wire    1  aaaai  fourth       $end
$upscope $end
$upscope $end
$enddefinitions  $end

$comment
All initial values are dumped below at time 0 sec = 0 timescale units.
$end

$dumpvars
1aaaaa
0aaaab
0aaaac
1aaaad
0aaaae
0aaaaf
0aaaag
0aaaah
0aaaai
$end

#2500
0aaaaa

#5000
1aaaaa

#7500
0aaaaa

#10000
1aaaaa

#12500
0aaaaa

#15000
1aaaaa

#17500
0aaaaa

#20000
1aaaaa
1aaaab
1aaaaf

#22500
0aaaaa

#25000
1aaaaa
0aaaab
0aaaaf
1aaaag

#27500
0aaaaa

#30000
1aaaaa
0aaaag
1aaaah

#32500
0aaaaa

#35000
1aaaaa
0aaaah
1aaaai

#37500
0aaaaa

#40000
1aaaaa
0aaaai

#42500
0aaaaa

#45000
1aaaaa
1aaaab
1aaaaf

#47500
0aaaaa

#50000
1aaaaa
0aaaab
0aaaaf
1aaaag

#52500
0aaaaa

#55000
1aaaaa
0aaaag
1aaaah

#57500
0aaaaa

#60000
1aaaaa
1aaaab
1aaaaf
0aaaah
1aaaai

#62500
0aaaaa

#65000
1aaaaa
1aaaag
0aaaai

#67500
0aaaaa

#70000
1aaaaa
0aaaab
0aaaaf
1aaaah

#72500
0aaaaa

#75000
1aaaaa
0aaaag
1aaaai

#77500
0aaaaa

#80000
1aaaaa
0aaaah

#82500
0aaaaa

#85000
1aaaaa
0aaaai

#87500
0aaaaa

#90000
1aaaaa
1aaaab
1aaaaf

#92500
0aaaaa

#95000
1aaaaa
0aaaab
0aaaaf
1aaaag

#97500
0aaaaa

#100000
1aaaaa
1aaaab
1aaaaf
0aaaag
1aaaah

#102500
0aaaaa

#105000
1aaaaa
0aaaab
0aaaaf
1aaaag
0aaaah
1aaaai

#107500
0aaaaa

#110000
1aaaaa
1aaaab
1aaaaf
0aaaag
1aaaah
0aaaai

#112500
0aaaaa

#115000
1aaaaa
0aaaab
0aaaaf
1aaaag
0aaaah
1aaaai

#117500
0aaaaa

#120000
1aaaaa
0aaaag
1aaaah
0aaaai

#122500
0aaaaa

#125000
1aaaaa
1aaaab
1aaaaf
0aaaah
1aaaai

#127500
0aaaaa

#130000
1aaaaa
1aaaag
0aaaai

#132500
0aaaaa

#135000
1aaaaa
0aaaab
0aaaaf
1aaaah

#137500
0aaaaa

#140000
1aaaaa
1aaaab
1aaaaf
0aaaag
1aaaai

#142500
0aaaaa

#145000
1aaaaa
1aaaac
1aaaag
0aaaah

#147500
0aaaaa

#150000
1aaaaa
0aaaac
1aaaah
0aaaai

#152500
0aaaaa

#155000
1aaaaa
0aaaab
0aaaaf
1aaaai

#157500
0aaaaa

#160000
1aaaaa
0aaaag

#162500
0aaaaa

#165000
1aaaaa
0aaaah

#167500
0aaaaa

#170000
1aaaaa
0aaaai

#172500
0aaaaa

#175000
1aaaaa
1aaaab
1aaaaf

#177500
0aaaaa

#180000
1aaaaa
1aaaag

#182500
0aaaaa

#185000
1aaaaa
0aaaab
0aaaaf
1aaaah

#187500
0aaaaa

#190000
1aaaaa
0aaaag
1aaaai

#192500
0aaaaa

#195000
1aaaaa
1aaaab
1aaaaf
0aaaah

#197500
0aaaaa

#200000
1aaaaa
0aaaab
0aaaaf
1aaaag
0aaaai

#202500
0aaaaa

#205000
1aaaaa
1aaaab
1aaaaf
0aaaag
1aaaah

#207500
0aaaaa

#210000
1aaaaa
0aaaab
0aaaaf
1aaaag
0aaaah
1aaaai

#212500
0aaaaa

#215000
1aaaaa
1aaaab
1aaaaf
0aaaag
1aaaah
0aaaai

#217500
0aaaaa

#220000
1aaaaa
1aaaac
1aaaag
0aaaah
1aaaai

#222500
0aaaaa

#225000
1aaaaa
0aaaac
1aaaah
0aaaai

#227500
0aaaaa

#230000
1aaaaa
0aaaab
0aaaaf
1aaaai

#232500
0aaaaa

#235000
1aaaaa
1aaaab
1aaaaf
0aaaag

#237500
0aaaaa

#240000
1aaaaa
0aaaab
0aaaaf
1aaaag
0aaaah

#242500
0aaaaa

#245000
1aaaaa
0aaaag
1aaaah
0aaaai

#247500
0aaaaa

#250000
1aaaaa
1aaaab
1aaaaf
0aaaah
1aaaai

#252500
0aaaaa

#255000
1aaaaa
1aaaag
0aaaai

#257500
0aaaaa

#260000
1aaaaa
1aaaah

#262500
0aaaaa

#265000
1aaaaa
0aaaab
0aaaaf
1aaaai

#267500
0aaaaa

#270000
1aaaaa
1aaaab
1aaaaf
0aaaag

#272500
0aaaaa

#275000
1aaaaa
1aaaac
1aaaag
0aaaah

#277500
0aaaaa

#280000
1aaaaa
0aaaab
0aaaac
0aaaaf
1aaaah
0aaaai

#282500
0aaaaa

#285000
1aaaaa
1aaaab
1aaaaf
0aaaag
1aaaai

#287500
0aaaaa

#290000
1aaaaa
1aaaac
1aaaag
0aaaah

#292500
0aaaaa

#295000
1aaaaa
0aaaac
1aaaah
0aaaai

#297500
0aaaaa

#300000
1aaaaa
1aaaai

#302500
0aaaaa

#305000
1aaaaa

#307500
0aaaaa

#310000
1aaaaa

#312500
0aaaaa

#315000
1aaaaa

#317500
0aaaaa

#320000
1aaaaa
0aaaad
0aaaaf
0aaaag
0aaaah
0aaaai

#322500
0aaaaa

#325000
1aaaaa

#327500
0aaaaa

#330000
1aaaaa
0aaaab

#332500
0aaaaa

#335000
1aaaaa
1aaaab

#337500
0aaaaa

#340000
1aaaaa

#342500
0aaaaa

#345000
1aaaaa
1aaaad
1aaaae
1aaaaf

#347500
0aaaaa

#350000
1aaaaa
1aaaag

#352500
0aaaaa

#355000
1aaaaa
0aaaab
0aaaaf
1aaaah

#357500
0aaaaa

#360000
1aaaaa
1aaaab
1aaaaf
0aaaag
1aaaai

#362500
0aaaaa

#365000
1aaaaa
1aaaag
0aaaah

#367500
0aaaaa

