cpu/risccpu.vcd
$date
     Oct 18, 2018       00:14:49
$end

$version
 SystemC 2.3.2-Accellera --- Sep  5 2018 14:15:23
$end

$timescale
     1 ps
$end

$scope module SystemC $end
$var wire    1  aaaaa  c1       $end
$upscope $end
$enddefinitions  $end

$comment
All initial values are dumped below at time 0 sec = 0 timescale units.
$end

$dumpvars
1aaaaa
$end

#2500
0aaaaa

#5000
1aaaaa

#7500
0aaaaa

#10000
1aaaaa

#12500
0aaaaa

#15000
1aaaaa

#17500
0aaaaa

#20000
1aaaaa

#22500
0aaaaa

#25000
1aaaaa

#27500
0aaaaa

#30000
1aaaaa

#32500
0aaaaa

#35000
1aaaaa

#37500
0aaaaa

#40000
1aaaaa

#42500
0aaaaa

#45000
1aaaaa

#47500
0aaaaa

#50000
1aaaaa

#52500
0aaaaa

#55000
1aaaaa

#57500
0aaaaa

#60000
1aaaaa

#62500
0aaaaa

#65000
1aaaaa

#67500
0aaaaa

#70000
1aaaaa

#72500
0aaaaa

#75000
1aaaaa

#77500
0aaaaa

#80000
1aaaaa

#82500
0aaaaa

#85000
1aaaaa

#87500
0aaaaa

#90000
1aaaaa

#92500
0aaaaa

#95000
1aaaaa

#97500
0aaaaa

#100000
1aaaaa

#102500
0aaaaa

#105000
1aaaaa

#107500
0aaaaa

#110000
1aaaaa

#112500
0aaaaa

#115000
1aaaaa

#117500
0aaaaa

#120000
1aaaaa

#122500
0aaaaa

#125000
1aaaaa

#127500
0aaaaa

#130000
1aaaaa

#132500
0aaaaa

#135000
1aaaaa

#137500
0aaaaa

#140000
1aaaaa

#142500
0aaaaa

#145000
1aaaaa

#147500
0aaaaa

#150000
1aaaaa

#152500
0aaaaa

#155000
1aaaaa

#157500
0aaaaa

#160000
1aaaaa

#162500
0aaaaa

#165000
1aaaaa

#167500
0aaaaa

#170000
1aaaaa

#172500
0aaaaa

#175000
1aaaaa

#177500
0aaaaa

#180000
1aaaaa

#182500
0aaaaa

#185000
1aaaaa

#187500
0aaaaa

#190000
1aaaaa

#192500
0aaaaa

#195000
1aaaaa

#197500
0aaaaa

#200000
1aaaaa

#202500
0aaaaa

#205000
1aaaaa

#207500
0aaaaa

#210000
1aaaaa

#212500
0aaaaa

#215000
1aaaaa

#217500
0aaaaa

#220000
1aaaaa

#222500
0aaaaa

#225000
1aaaaa

#227500
0aaaaa

#230000
1aaaaa

#232500
0aaaaa

#235000
1aaaaa

#237500
0aaaaa

#240000
1aaaaa

#242500
0aaaaa

#245000
1aaaaa

#247500
0aaaaa

#250000
1aaaaa

#252500
0aaaaa

#255000
1aaaaa

#257500
0aaaaa

#260000
1aaaaa

#262500
0aaaaa

#265000
1aaaaa

#267500
0aaaaa

#270000
1aaaaa

#272500
0aaaaa

#275000
1aaaaa

#277500
0aaaaa

#280000
1aaaaa

#282500
0aaaaa

#285000
1aaaaa

#287500
0aaaaa

#290000
1aaaaa

#292500
0aaaaa

#295000
1aaaaa

#297500
0aaaaa

