two_counters/two_counters.vcd
$date
     Nov 04, 2018       01:23:31
$end

$version
 SystemC 2.3.2-Accellera --- Sep  5 2018 14:15:23
$end

$timescale
     1 ps
$end

$scope module SystemC $end
$var wire    1  aaaaa  c1       $end
$var wire    8  aaaab  t_in1 [7:0]  $end
$var wire    8  aaaac  t_in2 [7:0]  $end
$var wire    8  aaaad  t_in3 [7:0]  $end
$var wire    8  aaaae  t_count1 [7:0]  $end
$var wire    8  aaaaf  t_count2 [7:0]  $end
$var wire    1  aaaag  t_load1       $end
$var wire    1  aaaah  t_load2       $end
$var wire    1  aaaai  t_dec1       $end
$var wire    1  aaaaj  t_dec2       $end
$var wire    1  aaaak  t_overflow1       $end
$var wire    1  aaaal  t_overflow2       $end
$var wire    1  aaaam  t_ended       $end
$var wire    1  aaaan  t_hold       $end
$upscope $end
$enddefinitions  $end

$comment
All initial values are dumped below at time 0 sec = 0 timescale units.
$end

$dumpvars
1aaaaa
b1110 aaaab
b101 aaaac
b11 aaaad
b0 aaaae
b0 aaaaf
0aaaag
0aaaah
0aaaai
0aaaaj
0aaaak
0aaaal
1aaaam
1aaaan
$end

#2500
0aaaaa

#5000
1aaaaa
b1110 aaaae
b101 aaaaf
1aaaag
1aaaah
1aaaai
0aaaam
0aaaan

#7500
0aaaaa

#10000
1aaaaa
b1101 aaaae
0aaaag
0aaaah

#12500
0aaaaa

#15000
1aaaaa
b1100 aaaae

#17500
0aaaaa

#20000
1aaaaa
b1011 aaaae

#22500
0aaaaa

#25000
1aaaaa
b1010 aaaae

#27500
0aaaaa

#30000
1aaaaa
b1001 aaaae

#32500
0aaaaa

#35000
1aaaaa
b1000 aaaae

#37500
0aaaaa

#40000
1aaaaa
b111 aaaae

#42500
0aaaaa

#45000
1aaaaa
b110 aaaae

#47500
0aaaaa

#50000
1aaaaa
b101 aaaae
1aaaam
1aaaan

#52500
0aaaaa

#55000
1aaaaa

#57500
0aaaaa

#60000
1aaaaa

#62500
0aaaaa

#65000
1aaaaa

#67500
0aaaaa

#70000
1aaaaa
b11 aaaab
b1111 aaaac

#72500
0aaaaa

#75000
1aaaaa
b11 aaaae
b1111 aaaaf
1aaaag
1aaaah
0aaaam
0aaaan

#77500
0aaaaa

#80000
1aaaaa
b1100 aaaaf
0aaaag
0aaaah
0aaaai
1aaaaj

#82500
0aaaaa

#85000
1aaaaa
b1001 aaaaf

#87500
0aaaaa

#90000
1aaaaa
b110 aaaaf

#92500
0aaaaa

#95000
1aaaaa
b11 aaaaf
1aaaam
1aaaan

#97500
0aaaaa

#100000
1aaaaa

#102500
0aaaaa

#105000
1aaaaa

#107500
0aaaaa

#110000
1aaaaa

#112500
0aaaaa

#115000
1aaaaa

#117500
0aaaaa

#120000
1aaaaa

#122500
0aaaaa

#125000
1aaaaa

#127500
0aaaaa

#130000
1aaaaa
b101 aaaab
b111 aaaac

#132500
0aaaaa

#135000
1aaaaa
b101 aaaae
b111 aaaaf
1aaaag
1aaaah
1aaaai
0aaaaj
0aaaam
0aaaan

#137500
0aaaaa

#140000
1aaaaa
b100 aaaaf
0aaaag
0aaaah
0aaaai
1aaaaj

#142500
0aaaaa

#145000
1aaaaa
b1 aaaaf

#147500
0aaaaa

#150000
1aaaaa
b11111110 aaaaf
1aaaal
1aaaam
1aaaan

#152500
0aaaaa

#155000
1aaaaa

#157500
0aaaaa

#160000
1aaaaa

#162500
0aaaaa

#165000
1aaaaa

#167500
0aaaaa

