gaze/gaze.vcd
$date
     Dec 14, 2018       15:53:13
$end

$version
 SystemC 2.3.2-Accellera --- Sep  5 2018 14:15:23
$end

$timescale
     1 ps
$end

$scope module SystemC $end
$var wire    1  aaaaa  c1       $end
$upscope $end
$enddefinitions  $end

$comment
All initial values are dumped below at time 0 sec = 0 timescale units.
$end

$dumpvars
1aaaaa
$end

#2500000000
0aaaaa

#5000000000
1aaaaa

#7500000000
0aaaaa

#10000000000
1aaaaa

#12500000000
0aaaaa

#15000000000
1aaaaa

#17500000000
0aaaaa

#20000000000
1aaaaa

#22500000000
0aaaaa

#25000000000
1aaaaa

#27500000000
0aaaaa

#30000000000
1aaaaa

#32500000000
0aaaaa

#35000000000
1aaaaa

#37500000000
0aaaaa

#40000000000
1aaaaa

#42500000000
0aaaaa

#45000000000
1aaaaa

#47500000000
0aaaaa

#50000000000
1aaaaa

#52500000000
0aaaaa

#55000000000
1aaaaa

#57500000000
0aaaaa

#60000000000
1aaaaa

#62500000000
0aaaaa

#65000000000
1aaaaa

#67500000000
0aaaaa

#70000000000
1aaaaa

#72500000000
0aaaaa

#75000000000
1aaaaa

#77500000000
0aaaaa

#80000000000
1aaaaa

#82500000000
0aaaaa

#85000000000
1aaaaa

#87500000000
0aaaaa

#90000000000
1aaaaa

#92500000000
0aaaaa

#95000000000
1aaaaa

#97500000000
0aaaaa

#100000000000
1aaaaa

#102500000000
0aaaaa

#105000000000
1aaaaa

#107500000000
0aaaaa

#110000000000
1aaaaa

#112500000000
0aaaaa

#115000000000
1aaaaa

#117500000000
0aaaaa

#120000000000
1aaaaa

#122500000000
0aaaaa

#125000000000
1aaaaa

#127500000000
0aaaaa

#130000000000
1aaaaa

#132500000000
0aaaaa

#135000000000
1aaaaa

#137500000000
0aaaaa

#140000000000
1aaaaa

#142500000000
0aaaaa

#145000000000
1aaaaa

#147500000000
0aaaaa

#150000000000
1aaaaa

#152500000000
0aaaaa

#155000000000
1aaaaa

#157500000000
0aaaaa

#160000000000
1aaaaa

#162500000000
0aaaaa

#165000000000
1aaaaa

#167500000000
0aaaaa

#170000000000
1aaaaa

#172500000000
0aaaaa

#175000000000
1aaaaa

#177500000000
0aaaaa

#180000000000
1aaaaa

#182500000000
0aaaaa

#185000000000
1aaaaa

#187500000000
0aaaaa

#190000000000
1aaaaa

#192500000000
0aaaaa

#195000000000
1aaaaa

#197500000000
0aaaaa

#200000000000
1aaaaa

#202500000000
0aaaaa

#205000000000
1aaaaa

#207500000000
0aaaaa

#210000000000
1aaaaa

#212500000000
0aaaaa

#215000000000
1aaaaa

#217500000000
0aaaaa

#220000000000
1aaaaa

#222500000000
0aaaaa

#225000000000
1aaaaa

#227500000000
0aaaaa

#230000000000
1aaaaa

#232500000000
0aaaaa

#235000000000
1aaaaa

#237500000000
0aaaaa

#240000000000
1aaaaa

#242500000000
0aaaaa

#245000000000
1aaaaa

#247500000000
0aaaaa

#250000000000
1aaaaa

#252500000000
0aaaaa

#255000000000
1aaaaa

#257500000000
0aaaaa

#260000000000
1aaaaa

#262500000000
0aaaaa

#265000000000
1aaaaa

#267500000000
0aaaaa

#270000000000
1aaaaa

#272500000000
0aaaaa

#275000000000
1aaaaa

#277500000000
0aaaaa

#280000000000
1aaaaa

#282500000000
0aaaaa

#285000000000
1aaaaa

#287500000000
0aaaaa

#290000000000
1aaaaa

#292500000000
0aaaaa

#295000000000
1aaaaa

#297500000000
0aaaaa

#300000000000
1aaaaa

#302500000000
0aaaaa

#305000000000
1aaaaa

#307500000000
0aaaaa

#310000000000
1aaaaa

#312500000000
0aaaaa

#315000000000
1aaaaa

#317500000000
0aaaaa

#320000000000
1aaaaa

#322500000000
0aaaaa

#325000000000
1aaaaa

#327500000000
0aaaaa

#330000000000
1aaaaa

#332500000000
0aaaaa

#335000000000
1aaaaa

#337500000000
0aaaaa

#340000000000
1aaaaa

#342500000000
0aaaaa

#345000000000
1aaaaa

#347500000000
0aaaaa

#350000000000
1aaaaa

#352500000000
0aaaaa

#355000000000
1aaaaa

#357500000000
0aaaaa

#360000000000
1aaaaa

#362500000000
0aaaaa

#365000000000
1aaaaa

#367500000000
0aaaaa

#370000000000
1aaaaa

#372500000000
0aaaaa

#375000000000
1aaaaa

#377500000000
0aaaaa

#380000000000
1aaaaa

#382500000000
0aaaaa

#385000000000
1aaaaa

#387500000000
0aaaaa

#390000000000
1aaaaa

#392500000000
0aaaaa

#395000000000
1aaaaa

#397500000000
0aaaaa

#400000000000
1aaaaa

#402500000000
0aaaaa

#405000000000
1aaaaa

#407500000000
0aaaaa

#410000000000
1aaaaa

#412500000000
0aaaaa

#415000000000
1aaaaa

#417500000000
0aaaaa

#420000000000
1aaaaa

#422500000000
0aaaaa

#425000000000
1aaaaa

#427500000000
0aaaaa

#430000000000
1aaaaa

#432500000000
0aaaaa

#435000000000
1aaaaa

#437500000000
0aaaaa

#440000000000
1aaaaa

#442500000000
0aaaaa

#445000000000
1aaaaa

#447500000000
0aaaaa

#450000000000
1aaaaa

#452500000000
0aaaaa

#455000000000
1aaaaa

#457500000000
0aaaaa

#460000000000
1aaaaa

#462500000000
0aaaaa

#465000000000
1aaaaa

#467500000000
0aaaaa

#470000000000
1aaaaa

#472500000000
0aaaaa

#475000000000
1aaaaa

#477500000000
0aaaaa

#480000000000
1aaaaa

#482500000000
0aaaaa

#485000000000
1aaaaa

#487500000000
0aaaaa

#490000000000
1aaaaa

#492500000000
0aaaaa

#495000000000
1aaaaa

#497500000000
0aaaaa

#500000000000
1aaaaa

#502500000000
0aaaaa

#505000000000
1aaaaa

#507500000000
0aaaaa

#510000000000
1aaaaa

#512500000000
0aaaaa

#515000000000
1aaaaa

#517500000000
0aaaaa

#520000000000
1aaaaa

#522500000000
0aaaaa

#525000000000
1aaaaa

#527500000000
0aaaaa

#530000000000
1aaaaa

#532500000000
0aaaaa

#535000000000
1aaaaa

#537500000000
0aaaaa

#540000000000
1aaaaa

#542500000000
0aaaaa

#545000000000
1aaaaa

#547500000000
0aaaaa

#550000000000
1aaaaa

#552500000000
0aaaaa

#555000000000
1aaaaa

#557500000000
0aaaaa

#560000000000
1aaaaa

#562500000000
0aaaaa

#565000000000
1aaaaa

#567500000000
0aaaaa

#570000000000
1aaaaa

#572500000000
0aaaaa

#575000000000
1aaaaa

#577500000000
0aaaaa

#580000000000
1aaaaa

#582500000000
0aaaaa

#585000000000
1aaaaa

#587500000000
0aaaaa

#590000000000
1aaaaa

#592500000000
0aaaaa

#595000000000
1aaaaa

#597500000000
0aaaaa

#600000000000
1aaaaa

#602500000000
0aaaaa

#605000000000
1aaaaa

#607500000000
0aaaaa

#610000000000
1aaaaa

#612500000000
0aaaaa

#615000000000
1aaaaa

#617500000000
0aaaaa

#620000000000
1aaaaa

#622500000000
0aaaaa

#625000000000
1aaaaa

#627500000000
0aaaaa

#630000000000
1aaaaa

#632500000000
0aaaaa

#635000000000
1aaaaa

#637500000000
0aaaaa

#640000000000
1aaaaa

#642500000000
0aaaaa

#645000000000
1aaaaa

#647500000000
0aaaaa

#650000000000
1aaaaa

#652500000000
0aaaaa

#655000000000
1aaaaa

#657500000000
0aaaaa

#660000000000
1aaaaa

#662500000000
0aaaaa

#665000000000
1aaaaa

#667500000000
0aaaaa

#670000000000
1aaaaa

#672500000000
0aaaaa

#675000000000
1aaaaa

#677500000000
0aaaaa

#680000000000
1aaaaa

#682500000000
0aaaaa

#685000000000
1aaaaa

#687500000000
0aaaaa

#690000000000
1aaaaa

#692500000000
0aaaaa

#695000000000
1aaaaa

#697500000000
0aaaaa

#700000000000
1aaaaa

#702500000000
0aaaaa

#705000000000
1aaaaa

#707500000000
0aaaaa

#710000000000
1aaaaa

#712500000000
0aaaaa

#715000000000
1aaaaa

#717500000000
0aaaaa

#720000000000
1aaaaa

#722500000000
0aaaaa

#725000000000
1aaaaa

#727500000000
0aaaaa

#730000000000
1aaaaa

#732500000000
0aaaaa

#735000000000
1aaaaa

#737500000000
0aaaaa

#740000000000
1aaaaa

#742500000000
0aaaaa

#745000000000
1aaaaa

#747500000000
0aaaaa

#750000000000
1aaaaa

#752500000000
0aaaaa

#755000000000
1aaaaa

#757500000000
0aaaaa

#760000000000
1aaaaa

#762500000000
0aaaaa

#765000000000
1aaaaa

#767500000000
0aaaaa

#770000000000
1aaaaa

#772500000000
0aaaaa

#775000000000
1aaaaa

#777500000000
0aaaaa

#780000000000
1aaaaa

#782500000000
0aaaaa

#785000000000
1aaaaa

#787500000000
0aaaaa

#790000000000
1aaaaa

#792500000000
0aaaaa

#795000000000
1aaaaa

#797500000000
0aaaaa

#800000000000
1aaaaa

#802500000000
0aaaaa

#805000000000
1aaaaa

#807500000000
0aaaaa

#810000000000
1aaaaa

#812500000000
0aaaaa

#815000000000
1aaaaa

#817500000000
0aaaaa

#820000000000
1aaaaa

#822500000000
0aaaaa

#825000000000
1aaaaa

#827500000000
0aaaaa

#830000000000
1aaaaa

#832500000000
0aaaaa

#835000000000
1aaaaa

#837500000000
0aaaaa

#840000000000
1aaaaa

#842500000000
0aaaaa

#845000000000
1aaaaa

#847500000000
0aaaaa

#850000000000
1aaaaa

#852500000000
0aaaaa

#855000000000
1aaaaa

#857500000000
0aaaaa

#860000000000
1aaaaa

#862500000000
0aaaaa

#865000000000
1aaaaa

#867500000000
0aaaaa

#870000000000
1aaaaa

#872500000000
0aaaaa

#875000000000
1aaaaa

#877500000000
0aaaaa

#880000000000
1aaaaa

#882500000000
0aaaaa

#885000000000
1aaaaa

#887500000000
0aaaaa

#890000000000
1aaaaa

#892500000000
0aaaaa

#895000000000
1aaaaa

#897500000000
0aaaaa

#900000000000
1aaaaa

#902500000000
0aaaaa

#905000000000
1aaaaa

#907500000000
0aaaaa

#910000000000
1aaaaa

#912500000000
0aaaaa

#915000000000
1aaaaa

#917500000000
0aaaaa

#920000000000
1aaaaa

#922500000000
0aaaaa

#925000000000
1aaaaa

#927500000000
0aaaaa

#930000000000
1aaaaa

#932500000000
0aaaaa

#935000000000
1aaaaa

#937500000000
0aaaaa

#940000000000
1aaaaa

#942500000000
0aaaaa

#945000000000
1aaaaa

#947500000000
0aaaaa

#950000000000
1aaaaa

#952500000000
0aaaaa

#955000000000
1aaaaa

#957500000000
0aaaaa

#960000000000
1aaaaa

#962500000000
0aaaaa

#965000000000
1aaaaa

#967500000000
0aaaaa

#970000000000
1aaaaa

#972500000000
0aaaaa

#975000000000
1aaaaa

#977500000000
0aaaaa

#980000000000
1aaaaa

#982500000000
0aaaaa

#985000000000
1aaaaa

#987500000000
0aaaaa

#990000000000
1aaaaa

#992500000000
0aaaaa

#995000000000
1aaaaa

#997500000000
0aaaaa

#1000000000000
1aaaaa

#1002500000000
0aaaaa

#1005000000000
1aaaaa

#1007500000000
0aaaaa

#1010000000000
1aaaaa

#1012500000000
0aaaaa

#1015000000000
1aaaaa

#1017500000000
0aaaaa

#1020000000000
1aaaaa

#1022500000000
0aaaaa

#1025000000000
1aaaaa

#1027500000000
0aaaaa

#1030000000000
1aaaaa

#1032500000000
0aaaaa

#1035000000000
1aaaaa

#1037500000000
0aaaaa

#1040000000000
1aaaaa

#1042500000000
0aaaaa

#1045000000000
1aaaaa

#1047500000000
0aaaaa

#1050000000000
1aaaaa

#1052500000000
0aaaaa

#1055000000000
1aaaaa

#1057500000000
0aaaaa

#1060000000000
1aaaaa

#1062500000000
0aaaaa

#1065000000000
1aaaaa

#1067500000000
0aaaaa

#1070000000000
1aaaaa

#1072500000000
0aaaaa

#1075000000000
1aaaaa

#1077500000000
0aaaaa

#1080000000000
1aaaaa

#1082500000000
0aaaaa

#1085000000000
1aaaaa

#1087500000000
0aaaaa

#1090000000000
1aaaaa

#1092500000000
0aaaaa

#1095000000000
1aaaaa

#1097500000000
0aaaaa

#1100000000000
1aaaaa

#1102500000000
0aaaaa

#1105000000000
1aaaaa

#1107500000000
0aaaaa

#1110000000000
1aaaaa

#1112500000000
0aaaaa

#1115000000000
1aaaaa

#1117500000000
0aaaaa

#1120000000000
1aaaaa

#1122500000000
0aaaaa

#1125000000000
1aaaaa

#1127500000000
0aaaaa

#1130000000000
1aaaaa

#1132500000000
0aaaaa

#1135000000000
1aaaaa

#1137500000000
0aaaaa

#1140000000000
1aaaaa

#1142500000000
0aaaaa

#1145000000000
1aaaaa

#1147500000000
0aaaaa

#1150000000000
1aaaaa

#1152500000000
0aaaaa

#1155000000000
1aaaaa

#1157500000000
0aaaaa

#1160000000000
1aaaaa

#1162500000000
0aaaaa

#1165000000000
1aaaaa

#1167500000000
0aaaaa

#1170000000000
1aaaaa

#1172500000000
0aaaaa

#1175000000000
1aaaaa

#1177500000000
0aaaaa

#1180000000000
1aaaaa

#1182500000000
0aaaaa

#1185000000000
1aaaaa

#1187500000000
0aaaaa

#1190000000000
1aaaaa

#1192500000000
0aaaaa

#1195000000000
1aaaaa

#1197500000000
0aaaaa

#1200000000000
1aaaaa

#1202500000000
0aaaaa

#1205000000000
1aaaaa

#1207500000000
0aaaaa

#1210000000000
1aaaaa

#1212500000000
0aaaaa

#1215000000000
1aaaaa

#1217500000000
0aaaaa

#1220000000000
1aaaaa

#1222500000000
0aaaaa

#1225000000000
1aaaaa

#1227500000000
0aaaaa

#1230000000000
1aaaaa

#1232500000000
0aaaaa

#1235000000000
1aaaaa

#1237500000000
0aaaaa

#1240000000000
1aaaaa

#1242500000000
0aaaaa

#1245000000000
1aaaaa

#1247500000000
0aaaaa

#1250000000000
1aaaaa

#1252500000000
0aaaaa

#1255000000000
1aaaaa

#1257500000000
0aaaaa

#1260000000000
1aaaaa

#1262500000000
0aaaaa

#1265000000000
1aaaaa

#1267500000000
0aaaaa

#1270000000000
1aaaaa

#1272500000000
0aaaaa

#1275000000000
1aaaaa

#1277500000000
0aaaaa

#1280000000000
1aaaaa

#1282500000000
0aaaaa

#1285000000000
1aaaaa

#1287500000000
0aaaaa

#1290000000000
1aaaaa

#1292500000000
0aaaaa

#1295000000000
1aaaaa

#1297500000000
0aaaaa

#1300000000000
1aaaaa

#1302500000000
0aaaaa

#1305000000000
1aaaaa

#1307500000000
0aaaaa

#1310000000000
1aaaaa

#1312500000000
0aaaaa

#1315000000000
1aaaaa

#1317500000000
0aaaaa

#1320000000000
1aaaaa

#1322500000000
0aaaaa

#1325000000000
1aaaaa

#1327500000000
0aaaaa

#1330000000000
1aaaaa

#1332500000000
0aaaaa

#1335000000000
1aaaaa

#1337500000000
0aaaaa

#1340000000000
1aaaaa

#1342500000000
0aaaaa

#1345000000000
1aaaaa

#1347500000000
0aaaaa

#1350000000000
1aaaaa

#1352500000000
0aaaaa

#1355000000000
1aaaaa

#1357500000000
0aaaaa

#1360000000000
1aaaaa

#1362500000000
0aaaaa

#1365000000000
1aaaaa

#1367500000000
0aaaaa

#1370000000000
1aaaaa

#1372500000000
0aaaaa

#1375000000000
1aaaaa

#1377500000000
0aaaaa

#1380000000000
1aaaaa

#1382500000000
0aaaaa

#1385000000000
1aaaaa

#1387500000000
0aaaaa

#1390000000000
1aaaaa

#1392500000000
0aaaaa

#1395000000000
1aaaaa

#1397500000000
0aaaaa

#1400000000000
1aaaaa

#1402500000000
0aaaaa

#1405000000000
1aaaaa

#1407500000000
0aaaaa

#1410000000000
1aaaaa

#1412500000000
0aaaaa

#1415000000000
1aaaaa

#1417500000000
0aaaaa

#1420000000000
1aaaaa

#1422500000000
0aaaaa

#1425000000000
1aaaaa

#1427500000000
0aaaaa

#1430000000000
1aaaaa

#1432500000000
0aaaaa

#1435000000000
1aaaaa

#1437500000000
0aaaaa

#1440000000000
1aaaaa

#1442500000000
0aaaaa

#1445000000000
1aaaaa

#1447500000000
0aaaaa

#1450000000000
1aaaaa

#1452500000000
0aaaaa

#1455000000000
1aaaaa

#1457500000000
0aaaaa

#1460000000000
1aaaaa

#1462500000000
0aaaaa

#1465000000000
1aaaaa

#1467500000000
0aaaaa

#1470000000000
1aaaaa

#1472500000000
0aaaaa

#1475000000000
1aaaaa

#1477500000000
0aaaaa

#1480000000000
1aaaaa

#1482500000000
0aaaaa

#1485000000000
1aaaaa

#1487500000000
0aaaaa

#1490000000000
1aaaaa

#1492500000000
0aaaaa

#1495000000000
1aaaaa

#1497500000000
0aaaaa

#1500000000000
1aaaaa

#1502500000000
0aaaaa

#1505000000000
1aaaaa

#1507500000000
0aaaaa

#1510000000000
1aaaaa

#1512500000000
0aaaaa

#1515000000000
1aaaaa

#1517500000000
0aaaaa

#1520000000000
1aaaaa

#1522500000000
0aaaaa

#1525000000000
1aaaaa

#1527500000000
0aaaaa

#1530000000000
1aaaaa

#1532500000000
0aaaaa

#1535000000000
1aaaaa

#1537500000000
0aaaaa

#1540000000000
1aaaaa

#1542500000000
0aaaaa

#1545000000000
1aaaaa

#1547500000000
0aaaaa

#1550000000000
1aaaaa

#1552500000000
0aaaaa

#1555000000000
1aaaaa

#1557500000000
0aaaaa

#1560000000000
1aaaaa

#1562500000000
0aaaaa

#1565000000000
1aaaaa

#1567500000000
0aaaaa

#1570000000000
1aaaaa

#1572500000000
0aaaaa

#1575000000000
1aaaaa

#1577500000000
0aaaaa

#1580000000000
1aaaaa

#1582500000000
0aaaaa

#1585000000000
1aaaaa

#1587500000000
0aaaaa

#1590000000000
1aaaaa

#1592500000000
0aaaaa

#1595000000000
1aaaaa

#1597500000000
0aaaaa

#1600000000000
1aaaaa

#1602500000000
0aaaaa

#1605000000000
1aaaaa

#1607500000000
0aaaaa

#1610000000000
1aaaaa

#1612500000000
0aaaaa

#1615000000000
1aaaaa

#1617500000000
0aaaaa

#1620000000000
1aaaaa

#1622500000000
0aaaaa

#1625000000000
1aaaaa

#1627500000000
0aaaaa

#1630000000000
1aaaaa

#1632500000000
0aaaaa

#1635000000000
1aaaaa

#1637500000000
0aaaaa

#1640000000000
1aaaaa

#1642500000000
0aaaaa

#1645000000000
1aaaaa

#1647500000000
0aaaaa

#1650000000000
1aaaaa

#1652500000000
0aaaaa

#1655000000000
1aaaaa

#1657500000000
0aaaaa

#1660000000000
1aaaaa

#1662500000000
0aaaaa

#1665000000000
1aaaaa

#1667500000000
0aaaaa

#1670000000000
1aaaaa

#1672500000000
0aaaaa

#1675000000000
1aaaaa

#1677500000000
0aaaaa

#1680000000000
1aaaaa

#1682500000000
0aaaaa

#1685000000000
1aaaaa

#1687500000000
0aaaaa

#1690000000000
1aaaaa

#1692500000000
0aaaaa

#1695000000000
1aaaaa

#1697500000000
0aaaaa

#1700000000000
1aaaaa

#1702500000000
0aaaaa

#1705000000000
1aaaaa

#1707500000000
0aaaaa

#1710000000000
1aaaaa

#1712500000000
0aaaaa

#1715000000000
1aaaaa

#1717500000000
0aaaaa

#1720000000000
1aaaaa

#1722500000000
0aaaaa

#1725000000000
1aaaaa

#1727500000000
0aaaaa

#1730000000000
1aaaaa

#1732500000000
0aaaaa

#1735000000000
1aaaaa

#1737500000000
0aaaaa

#1740000000000
1aaaaa

#1742500000000
0aaaaa

#1745000000000
1aaaaa

#1747500000000
0aaaaa

#1750000000000
1aaaaa

#1752500000000
0aaaaa

#1755000000000
1aaaaa

#1757500000000
0aaaaa

#1760000000000
1aaaaa

#1762500000000
0aaaaa

#1765000000000
1aaaaa

#1767500000000
0aaaaa

#1770000000000
1aaaaa

#1772500000000
0aaaaa

#1775000000000
1aaaaa

#1777500000000
0aaaaa

#1780000000000
1aaaaa

#1782500000000
0aaaaa

#1785000000000
1aaaaa

#1787500000000
0aaaaa

#1790000000000
1aaaaa

#1792500000000
0aaaaa

#1795000000000
1aaaaa

#1797500000000
0aaaaa

#1800000000000
1aaaaa

#1802500000000
0aaaaa

#1805000000000
1aaaaa

#1807500000000
0aaaaa

#1810000000000
1aaaaa

#1812500000000
0aaaaa

#1815000000000
1aaaaa

#1817500000000
0aaaaa

#1820000000000
1aaaaa

#1822500000000
0aaaaa

#1825000000000
1aaaaa

#1827500000000
0aaaaa

#1830000000000
1aaaaa

#1832500000000
0aaaaa

#1835000000000
1aaaaa

#1837500000000
0aaaaa

#1840000000000
1aaaaa

#1842500000000
0aaaaa

#1845000000000
1aaaaa

#1847500000000
0aaaaa

#1850000000000
1aaaaa

#1852500000000
0aaaaa

#1855000000000
1aaaaa

#1857500000000
0aaaaa

#1860000000000
1aaaaa

#1862500000000
0aaaaa

#1865000000000
1aaaaa

#1867500000000
0aaaaa

#1870000000000
1aaaaa

#1872500000000
0aaaaa

#1875000000000
1aaaaa

#1877500000000
0aaaaa

#1880000000000
1aaaaa

#1882500000000
0aaaaa

#1885000000000
1aaaaa

#1887500000000
0aaaaa

#1890000000000
1aaaaa

#1892500000000
0aaaaa

#1895000000000
1aaaaa

#1897500000000
0aaaaa

#1900000000000
1aaaaa

#1902500000000
0aaaaa

#1905000000000
1aaaaa

#1907500000000
0aaaaa

#1910000000000
1aaaaa

#1912500000000
0aaaaa

#1915000000000
1aaaaa

#1917500000000
0aaaaa

#1920000000000
1aaaaa

#1922500000000
0aaaaa

#1925000000000
1aaaaa

#1927500000000
0aaaaa

#1930000000000
1aaaaa

#1932500000000
0aaaaa

#1935000000000
1aaaaa

#1937500000000
0aaaaa

#1940000000000
1aaaaa

#1942500000000
0aaaaa

#1945000000000
1aaaaa

#1947500000000
0aaaaa

#1950000000000
1aaaaa

#1952500000000
0aaaaa

#1955000000000
1aaaaa

#1957500000000
0aaaaa

#1960000000000
1aaaaa

#1962500000000
0aaaaa

#1965000000000
1aaaaa

#1967500000000
0aaaaa

#1970000000000
1aaaaa

#1972500000000
0aaaaa

#1975000000000
1aaaaa

#1977500000000
0aaaaa

#1980000000000
1aaaaa

#1982500000000
0aaaaa

#1985000000000
1aaaaa

#1987500000000
0aaaaa

#1990000000000
1aaaaa

#1992500000000
0aaaaa

#1995000000000
1aaaaa

#1997500000000
0aaaaa

#2000000000000
1aaaaa

#2002500000000
0aaaaa

#2005000000000
1aaaaa

#2007500000000
0aaaaa

#2010000000000
1aaaaa

#2012500000000
0aaaaa

#2015000000000
1aaaaa

#2017500000000
0aaaaa

#2020000000000
1aaaaa

#2022500000000
0aaaaa

#2025000000000
1aaaaa

#2027500000000
0aaaaa

#2030000000000
1aaaaa

#2032500000000
0aaaaa

#2035000000000
1aaaaa

#2037500000000
0aaaaa

#2040000000000
1aaaaa

#2042500000000
0aaaaa

#2045000000000
1aaaaa

#2047500000000
0aaaaa

#2050000000000
1aaaaa

#2052500000000
0aaaaa

#2055000000000
1aaaaa

#2057500000000
0aaaaa

#2060000000000
1aaaaa

#2062500000000
0aaaaa

#2065000000000
1aaaaa

#2067500000000
0aaaaa

#2070000000000
1aaaaa

#2072500000000
0aaaaa

#2075000000000
1aaaaa

#2077500000000
0aaaaa

#2080000000000
1aaaaa

#2082500000000
0aaaaa

#2085000000000
1aaaaa

#2087500000000
0aaaaa

#2090000000000
1aaaaa

#2092500000000
0aaaaa

#2095000000000
1aaaaa

#2097500000000
0aaaaa

#2100000000000
1aaaaa

#2102500000000
0aaaaa

#2105000000000
1aaaaa

#2107500000000
0aaaaa

#2110000000000
1aaaaa

#2112500000000
0aaaaa

#2115000000000
1aaaaa

#2117500000000
0aaaaa

#2120000000000
1aaaaa

#2122500000000
0aaaaa

#2125000000000
1aaaaa

#2127500000000
0aaaaa

#2130000000000
1aaaaa

#2132500000000
0aaaaa

#2135000000000
1aaaaa

#2137500000000
0aaaaa

#2140000000000
1aaaaa

#2142500000000
0aaaaa

#2145000000000
1aaaaa

#2147500000000
0aaaaa

#2150000000000
1aaaaa

#2152500000000
0aaaaa

#2155000000000
1aaaaa

#2157500000000
0aaaaa

#2160000000000
1aaaaa

#2162500000000
0aaaaa

#2165000000000
1aaaaa

#2167500000000
0aaaaa

#2170000000000
1aaaaa

#2172500000000
0aaaaa

#2175000000000
1aaaaa

#2177500000000
0aaaaa

#2180000000000
1aaaaa

#2182500000000
0aaaaa

#2185000000000
1aaaaa

#2187500000000
0aaaaa

#2190000000000
1aaaaa

#2192500000000
0aaaaa

#2195000000000
1aaaaa

#2197500000000
0aaaaa

#2200000000000
1aaaaa

#2202500000000
0aaaaa

#2205000000000
1aaaaa

#2207500000000
0aaaaa

#2210000000000
1aaaaa

#2212500000000
0aaaaa

#2215000000000
1aaaaa

#2217500000000
0aaaaa

#2220000000000
1aaaaa

#2222500000000
0aaaaa

#2225000000000
1aaaaa

#2227500000000
0aaaaa

#2230000000000
1aaaaa

#2232500000000
0aaaaa

#2235000000000
1aaaaa

#2237500000000
0aaaaa

#2240000000000
1aaaaa

#2242500000000
0aaaaa

#2245000000000
1aaaaa

#2247500000000
0aaaaa

#2250000000000
1aaaaa

#2252500000000
0aaaaa

#2255000000000
1aaaaa

#2257500000000
0aaaaa

#2260000000000
1aaaaa

#2262500000000
0aaaaa

#2265000000000
1aaaaa

#2267500000000
0aaaaa

#2270000000000
1aaaaa

#2272500000000
0aaaaa

#2275000000000
1aaaaa

#2277500000000
0aaaaa

#2280000000000
1aaaaa

#2282500000000
0aaaaa

#2285000000000
1aaaaa

#2287500000000
0aaaaa

#2290000000000
1aaaaa

#2292500000000
0aaaaa

#2295000000000
1aaaaa

#2297500000000
0aaaaa

#2300000000000
1aaaaa

#2302500000000
0aaaaa

#2305000000000
1aaaaa

#2307500000000
0aaaaa

#2310000000000
1aaaaa

#2312500000000
0aaaaa

#2315000000000
1aaaaa

#2317500000000
0aaaaa

#2320000000000
1aaaaa

#2322500000000
0aaaaa

#2325000000000
1aaaaa

#2327500000000
0aaaaa

#2330000000000
1aaaaa

#2332500000000
0aaaaa

#2335000000000
1aaaaa

#2337500000000
0aaaaa

#2340000000000
1aaaaa

#2342500000000
0aaaaa

#2345000000000
1aaaaa

#2347500000000
0aaaaa

#2350000000000
1aaaaa

#2352500000000
0aaaaa

#2355000000000
1aaaaa

#2357500000000
0aaaaa

#2360000000000
1aaaaa

#2362500000000
0aaaaa

#2365000000000
1aaaaa

#2367500000000
0aaaaa

#2370000000000
1aaaaa

#2372500000000
0aaaaa

#2375000000000
1aaaaa

#2377500000000
0aaaaa

#2380000000000
1aaaaa

#2382500000000
0aaaaa

#2385000000000
1aaaaa

#2387500000000
0aaaaa

#2390000000000
1aaaaa

#2392500000000
0aaaaa

#2395000000000
1aaaaa

#2397500000000
0aaaaa

#2400000000000
1aaaaa

#2402500000000
0aaaaa

#2405000000000
1aaaaa

#2407500000000
0aaaaa

#2410000000000
1aaaaa

#2412500000000
0aaaaa

#2415000000000
1aaaaa

#2417500000000
0aaaaa

#2420000000000
1aaaaa

#2422500000000
0aaaaa

#2425000000000
1aaaaa

#2427500000000
0aaaaa

#2430000000000
1aaaaa

#2432500000000
0aaaaa

#2435000000000
1aaaaa

#2437500000000
0aaaaa

#2440000000000
1aaaaa

#2442500000000
0aaaaa

#2445000000000
1aaaaa

#2447500000000
0aaaaa

#2450000000000
1aaaaa

#2452500000000
0aaaaa

#2455000000000
1aaaaa

#2457500000000
0aaaaa

#2460000000000
1aaaaa

#2462500000000
0aaaaa

#2465000000000
1aaaaa

#2467500000000
0aaaaa

#2470000000000
1aaaaa

#2472500000000
0aaaaa

#2475000000000
1aaaaa

#2477500000000
0aaaaa

#2480000000000
1aaaaa

#2482500000000
0aaaaa

#2485000000000
1aaaaa

#2487500000000
0aaaaa

#2490000000000
1aaaaa

#2492500000000
0aaaaa

#2495000000000
1aaaaa

#2497500000000
0aaaaa

#2500000000000
1aaaaa

#2502500000000
0aaaaa

#2505000000000
1aaaaa

#2507500000000
0aaaaa

#2510000000000
1aaaaa

#2512500000000
0aaaaa

#2515000000000
1aaaaa

#2517500000000
0aaaaa

#2520000000000
1aaaaa

#2522500000000
0aaaaa

#2525000000000
1aaaaa

#2527500000000
0aaaaa

#2530000000000
1aaaaa

#2532500000000
0aaaaa

#2535000000000
1aaaaa

#2537500000000
0aaaaa

#2540000000000
1aaaaa

#2542500000000
0aaaaa

#2545000000000
1aaaaa

#2547500000000
0aaaaa

#2550000000000
1aaaaa

#2552500000000
0aaaaa

#2555000000000
1aaaaa

#2557500000000
0aaaaa

#2560000000000
1aaaaa

#2562500000000
0aaaaa

#2565000000000
1aaaaa

#2567500000000
0aaaaa

#2570000000000
1aaaaa

#2572500000000
0aaaaa

#2575000000000
1aaaaa

#2577500000000
0aaaaa

#2580000000000
1aaaaa

#2582500000000
0aaaaa

#2585000000000
1aaaaa

#2587500000000
0aaaaa

#2590000000000
1aaaaa

#2592500000000
0aaaaa

#2595000000000
1aaaaa

#2597500000000
0aaaaa

#2600000000000
1aaaaa

#2602500000000
0aaaaa

#2605000000000
1aaaaa

#2607500000000
0aaaaa

#2610000000000
1aaaaa

#2612500000000
0aaaaa

#2615000000000
1aaaaa

#2617500000000
0aaaaa

#2620000000000
1aaaaa

#2622500000000
0aaaaa

#2625000000000
1aaaaa

#2627500000000
0aaaaa

#2630000000000
1aaaaa

#2632500000000
0aaaaa

#2635000000000
1aaaaa

#2637500000000
0aaaaa

#2640000000000
1aaaaa

#2642500000000
0aaaaa

#2645000000000
1aaaaa

#2647500000000
0aaaaa

#2650000000000
1aaaaa

#2652500000000
0aaaaa

#2655000000000
1aaaaa

#2657500000000
0aaaaa

#2660000000000
1aaaaa

#2662500000000
0aaaaa

#2665000000000
1aaaaa

#2667500000000
0aaaaa

#2670000000000
1aaaaa

#2672500000000
0aaaaa

#2675000000000
1aaaaa

#2677500000000
0aaaaa

#2680000000000
1aaaaa

#2682500000000
0aaaaa

#2685000000000
1aaaaa

#2687500000000
0aaaaa

#2690000000000
1aaaaa

#2692500000000
0aaaaa

#2695000000000
1aaaaa

#2697500000000
0aaaaa

#2700000000000
1aaaaa

#2702500000000
0aaaaa

#2705000000000
1aaaaa

#2707500000000
0aaaaa

#2710000000000
1aaaaa

#2712500000000
0aaaaa

#2715000000000
1aaaaa

