gaze/gaze.vcd
$date
     Dec 12, 2018       11:57:39
$end

$version
 SystemC 2.3.2-Accellera --- Sep  5 2018 14:15:23
$end

$timescale
     1 ps
$end

$scope module SystemC $end
$var wire    1  aaaaa  c1       $end
$upscope $end
$enddefinitions  $end

$comment
All initial values are dumped below at time 0 sec = 0 timescale units.
$end

$dumpvars
1aaaaa
$end

#2500000000
0aaaaa

#5000000000
1aaaaa

#7500000000
0aaaaa

#10000000000
1aaaaa

#12500000000
0aaaaa

#15000000000
1aaaaa

#17500000000
0aaaaa

#20000000000
1aaaaa

#22500000000
0aaaaa

#25000000000
1aaaaa

#27500000000
0aaaaa

#30000000000
1aaaaa

#32500000000
0aaaaa

#35000000000
1aaaaa

#37500000000
0aaaaa

#40000000000
1aaaaa

#42500000000
0aaaaa

#45000000000
1aaaaa

#47500000000
0aaaaa

#50000000000
1aaaaa

#52500000000
0aaaaa

#55000000000
1aaaaa

#57500000000
0aaaaa

#60000000000
1aaaaa

#62500000000
0aaaaa

#65000000000
1aaaaa

#67500000000
0aaaaa

#70000000000
1aaaaa

#72500000000
0aaaaa

#75000000000
1aaaaa

#77500000000
0aaaaa

#80000000000
1aaaaa

#82500000000
0aaaaa

#85000000000
1aaaaa

#87500000000
0aaaaa

#90000000000
1aaaaa

#92500000000
0aaaaa

#95000000000
1aaaaa

#97500000000
0aaaaa

#100000000000
1aaaaa

#102500000000
0aaaaa

#105000000000
1aaaaa

#107500000000
0aaaaa

#110000000000
1aaaaa

#112500000000
0aaaaa

#115000000000
1aaaaa

#117500000000
0aaaaa

#120000000000
1aaaaa

#122500000000
0aaaaa

#125000000000
1aaaaa

#127500000000
0aaaaa

#130000000000
1aaaaa

#132500000000
0aaaaa

#135000000000
1aaaaa

#137500000000
0aaaaa

#140000000000
1aaaaa

#142500000000
0aaaaa

#145000000000
1aaaaa

#147500000000
0aaaaa

#150000000000
1aaaaa

#152500000000
0aaaaa

#155000000000
1aaaaa

#157500000000
0aaaaa

#160000000000
1aaaaa

#162500000000
0aaaaa

#165000000000
1aaaaa

#167500000000
0aaaaa

#170000000000
1aaaaa

#172500000000
0aaaaa

#175000000000
1aaaaa

#177500000000
0aaaaa

#180000000000
1aaaaa

#182500000000
0aaaaa

#185000000000
1aaaaa

#187500000000
0aaaaa

#190000000000
1aaaaa

#192500000000
0aaaaa

#195000000000
1aaaaa

#197500000000
0aaaaa

