gaze/gaze.vcd
$date
     Nov 27, 2018       02:12:02
$end

$version
 SystemC 2.3.2-Accellera --- Sep  5 2018 14:15:23
$end

$timescale
     1 ps
$end

$scope module SystemC $end
$var wire    1  aaaaa  c1       $end
$upscope $end
$enddefinitions  $end

$comment
All initial values are dumped below at time 0 sec = 0 timescale units.
$end

$dumpvars
1aaaaa
$end

#2500000000
0aaaaa

#5000000000
1aaaaa

#7500000000
0aaaaa

#10000000000
1aaaaa

#12500000000
0aaaaa

#15000000000
1aaaaa

#17500000000
0aaaaa

#20000000000
1aaaaa

#22500000000
0aaaaa

#25000000000
1aaaaa

#27500000000
0aaaaa

#30000000000
1aaaaa

#32500000000
0aaaaa

#35000000000
1aaaaa

#37500000000
0aaaaa

#40000000000
1aaaaa

#42500000000
0aaaaa

#45000000000
1aaaaa

#47500000000
0aaaaa

#50000000000
1aaaaa

#52500000000
0aaaaa

#55000000000
1aaaaa

#57500000000
0aaaaa

#60000000000
1aaaaa

#62500000000
0aaaaa

#65000000000
1aaaaa

#67500000000
0aaaaa

#70000000000
1aaaaa

#72500000000
0aaaaa

#75000000000
1aaaaa

#77500000000
0aaaaa

#80000000000
1aaaaa

#82500000000
0aaaaa

#85000000000
1aaaaa

#87500000000
0aaaaa

#90000000000
1aaaaa

#92500000000
0aaaaa

#95000000000
1aaaaa

#97500000000
0aaaaa

#100000000000
1aaaaa

#102500000000
0aaaaa

#105000000000
1aaaaa

#107500000000
0aaaaa

#110000000000
1aaaaa

#112500000000
0aaaaa

#115000000000
1aaaaa

#117500000000
0aaaaa

#120000000000
1aaaaa

#122500000000
0aaaaa

#125000000000
1aaaaa

#127500000000
0aaaaa

#130000000000
1aaaaa

#132500000000
0aaaaa

#135000000000
1aaaaa

#137500000000
0aaaaa

#140000000000
1aaaaa

#142500000000
0aaaaa

#145000000000
1aaaaa

#147500000000
0aaaaa

#150000000000
1aaaaa

#152500000000
0aaaaa

#155000000000
1aaaaa

#157500000000
0aaaaa

#160000000000
1aaaaa

#162500000000
0aaaaa

#165000000000
1aaaaa

#167500000000
0aaaaa

#170000000000
1aaaaa

#172500000000
0aaaaa

#175000000000
1aaaaa

#177500000000
0aaaaa

#180000000000
1aaaaa

#182500000000
0aaaaa

#185000000000
1aaaaa

#187500000000
0aaaaa

#190000000000
1aaaaa

#192500000000
0aaaaa

#195000000000
1aaaaa

#197500000000
0aaaaa

#200000000000
1aaaaa

#202500000000
0aaaaa

#205000000000
1aaaaa

#207500000000
0aaaaa

#210000000000
1aaaaa

#212500000000
0aaaaa

#215000000000
1aaaaa

#217500000000
0aaaaa

#220000000000
1aaaaa

#222500000000
0aaaaa

#225000000000
1aaaaa

#227500000000
0aaaaa

#230000000000
1aaaaa

#232500000000
0aaaaa

#235000000000
1aaaaa

#237500000000
0aaaaa

#240000000000
1aaaaa

#242500000000
0aaaaa

#245000000000
1aaaaa

#247500000000
0aaaaa

#250000000000
1aaaaa

#252500000000
0aaaaa

#255000000000
1aaaaa

#257500000000
0aaaaa

#260000000000
1aaaaa

#262500000000
0aaaaa

#265000000000
1aaaaa

#267500000000
0aaaaa

#270000000000
1aaaaa

#272500000000
0aaaaa

#275000000000
1aaaaa

#277500000000
0aaaaa

#280000000000
1aaaaa

#282500000000
0aaaaa

#285000000000
1aaaaa

#287500000000
0aaaaa

#290000000000
1aaaaa

#292500000000
0aaaaa

#295000000000
1aaaaa

#297500000000
0aaaaa

#300000000000
1aaaaa

#302500000000
0aaaaa

#305000000000
1aaaaa

#307500000000
0aaaaa

#310000000000
1aaaaa

#312500000000
0aaaaa

#315000000000
1aaaaa

#317500000000
0aaaaa

#320000000000
1aaaaa

#322500000000
0aaaaa

#325000000000
1aaaaa

#327500000000
0aaaaa

#330000000000
1aaaaa

#332500000000
0aaaaa

#335000000000
1aaaaa

#337500000000
0aaaaa

#340000000000
1aaaaa

#342500000000
0aaaaa

#345000000000
1aaaaa

#347500000000
0aaaaa

#350000000000
1aaaaa

#352500000000
0aaaaa

#355000000000
1aaaaa

#357500000000
0aaaaa

#360000000000
1aaaaa

#362500000000
0aaaaa

#365000000000
1aaaaa

#367500000000
0aaaaa

#370000000000
1aaaaa

#372500000000
0aaaaa

#375000000000
1aaaaa

#377500000000
0aaaaa

#380000000000
1aaaaa

#382500000000
0aaaaa

#385000000000
1aaaaa

#387500000000
0aaaaa

#390000000000
1aaaaa

#392500000000
0aaaaa

#395000000000
1aaaaa

#397500000000
0aaaaa

#400000000000
1aaaaa

#402500000000
0aaaaa

#405000000000
1aaaaa

#407500000000
0aaaaa

#410000000000
1aaaaa

#412500000000
0aaaaa

#415000000000
1aaaaa

#417500000000
0aaaaa

#420000000000
1aaaaa

#422500000000
0aaaaa

#425000000000
1aaaaa

#427500000000
0aaaaa

#430000000000
1aaaaa

#432500000000
0aaaaa

#435000000000
1aaaaa

#437500000000
0aaaaa

#440000000000
1aaaaa

#442500000000
0aaaaa

#445000000000
1aaaaa

#447500000000
0aaaaa

#450000000000
1aaaaa

#452500000000
0aaaaa

#455000000000
1aaaaa

#457500000000
0aaaaa

#460000000000
1aaaaa

#462500000000
0aaaaa

#465000000000
1aaaaa

#467500000000
0aaaaa

#470000000000
1aaaaa

#472500000000
0aaaaa

#475000000000
1aaaaa

#477500000000
0aaaaa

#480000000000
1aaaaa

#482500000000
0aaaaa

#485000000000
1aaaaa

#487500000000
0aaaaa

#490000000000
1aaaaa

#492500000000
0aaaaa

#495000000000
1aaaaa

#497500000000
0aaaaa

#500000000000
1aaaaa

#502500000000
0aaaaa

#505000000000
1aaaaa

#507500000000
0aaaaa

#510000000000
1aaaaa

#512500000000
0aaaaa

#515000000000
1aaaaa

#517500000000
0aaaaa

#520000000000
1aaaaa

#522500000000
0aaaaa

#525000000000
1aaaaa

#527500000000
0aaaaa

#530000000000
1aaaaa

#532500000000
0aaaaa

#535000000000
1aaaaa

#537500000000
0aaaaa

#540000000000
1aaaaa

#542500000000
0aaaaa

#545000000000
1aaaaa

#547500000000
0aaaaa

#550000000000
1aaaaa

#552500000000
0aaaaa

#555000000000
1aaaaa

#557500000000
0aaaaa

#560000000000
1aaaaa

#562500000000
0aaaaa

#565000000000
1aaaaa

#567500000000
0aaaaa

#570000000000
1aaaaa

#572500000000
0aaaaa

#575000000000
1aaaaa

#577500000000
0aaaaa

#580000000000
1aaaaa

#582500000000
0aaaaa

#585000000000
1aaaaa

#587500000000
0aaaaa

#590000000000
1aaaaa

#592500000000
0aaaaa

#595000000000
1aaaaa

#597500000000
0aaaaa

#600000000000
1aaaaa

#602500000000
0aaaaa

#605000000000
1aaaaa

#607500000000
0aaaaa

#610000000000
1aaaaa

#612500000000
0aaaaa

#615000000000
1aaaaa

#617500000000
0aaaaa

#620000000000
1aaaaa

#622500000000
0aaaaa

#625000000000
1aaaaa

#627500000000
0aaaaa

#630000000000
1aaaaa

#632500000000
0aaaaa

#635000000000
1aaaaa

#637500000000
0aaaaa

#640000000000
1aaaaa

#642500000000
0aaaaa

#645000000000
1aaaaa

#647500000000
0aaaaa

#650000000000
1aaaaa

#652500000000
0aaaaa

#655000000000
1aaaaa

#657500000000
0aaaaa

#660000000000
1aaaaa

#662500000000
0aaaaa

#665000000000
1aaaaa

#667500000000
0aaaaa

#670000000000
1aaaaa

#672500000000
0aaaaa

#675000000000
1aaaaa

#677500000000
0aaaaa

#680000000000
1aaaaa

#682500000000
0aaaaa

#685000000000
1aaaaa

#687500000000
0aaaaa

#690000000000
1aaaaa

#692500000000
0aaaaa

#695000000000
1aaaaa

#697500000000
0aaaaa

#700000000000
1aaaaa

#702500000000
0aaaaa

#705000000000
1aaaaa

#707500000000
0aaaaa

#710000000000
1aaaaa

#712500000000
0aaaaa

#715000000000
1aaaaa

#717500000000
0aaaaa

#720000000000
1aaaaa

#722500000000
0aaaaa

#725000000000
1aaaaa

#727500000000
0aaaaa

#730000000000
1aaaaa

#732500000000
0aaaaa

#735000000000
1aaaaa

#737500000000
0aaaaa

#740000000000
1aaaaa

#742500000000
0aaaaa

#745000000000
1aaaaa

#747500000000
0aaaaa

#750000000000
1aaaaa

#752500000000
0aaaaa

#755000000000
1aaaaa

#757500000000
0aaaaa

#760000000000
1aaaaa

#762500000000
0aaaaa

#765000000000
1aaaaa

#767500000000
0aaaaa

#770000000000
1aaaaa

#772500000000
0aaaaa

#775000000000
1aaaaa

#777500000000
0aaaaa

#780000000000
1aaaaa

#782500000000
0aaaaa

#785000000000
1aaaaa

#787500000000
0aaaaa

#790000000000
1aaaaa

#792500000000
0aaaaa

#795000000000
1aaaaa

#797500000000
0aaaaa

#800000000000
1aaaaa

#802500000000
0aaaaa

#805000000000
1aaaaa

#807500000000
0aaaaa

#810000000000
1aaaaa

#812500000000
0aaaaa

#815000000000
1aaaaa

#817500000000
0aaaaa

#820000000000
1aaaaa

#822500000000
0aaaaa

#825000000000
1aaaaa

#827500000000
0aaaaa

#830000000000
1aaaaa

#832500000000
0aaaaa

#835000000000
1aaaaa

#837500000000
0aaaaa

#840000000000
1aaaaa

#842500000000
0aaaaa

#845000000000
1aaaaa

#847500000000
0aaaaa

#850000000000
1aaaaa

#852500000000
0aaaaa

#855000000000
1aaaaa

#857500000000
0aaaaa

#860000000000
1aaaaa

#862500000000
0aaaaa

#865000000000
1aaaaa

#867500000000
0aaaaa

#870000000000
1aaaaa

#872500000000
0aaaaa

#875000000000
1aaaaa

#877500000000
0aaaaa

#880000000000
1aaaaa

#882500000000
0aaaaa

#885000000000
1aaaaa

#887500000000
0aaaaa

#890000000000
1aaaaa

#892500000000
0aaaaa

#895000000000
1aaaaa

#897500000000
0aaaaa

#900000000000
1aaaaa

#902500000000
0aaaaa

#905000000000
1aaaaa

#907500000000
0aaaaa

#910000000000
1aaaaa

#912500000000
0aaaaa

#915000000000
1aaaaa

#917500000000
0aaaaa

#920000000000
1aaaaa

#922500000000
0aaaaa

#925000000000
1aaaaa

#927500000000
0aaaaa

#930000000000
1aaaaa

#932500000000
0aaaaa

#935000000000
1aaaaa

#937500000000
0aaaaa

#940000000000
1aaaaa

#942500000000
0aaaaa

#945000000000
1aaaaa

#947500000000
0aaaaa

#950000000000
1aaaaa

#952500000000
0aaaaa

#955000000000
1aaaaa

#957500000000
0aaaaa

#960000000000
1aaaaa

#962500000000
0aaaaa

#965000000000
1aaaaa

#967500000000
0aaaaa

#970000000000
1aaaaa

#972500000000
0aaaaa

#975000000000
1aaaaa

#977500000000
0aaaaa

#980000000000
1aaaaa

#982500000000
0aaaaa

#985000000000
1aaaaa

#987500000000
0aaaaa

#990000000000
1aaaaa

#992500000000
0aaaaa

#995000000000
1aaaaa

#997500000000
0aaaaa

